{
  "log": {
    "level": "warn",
    "output": "box.log",
    "timestamp": true
  },
  "dns": {
    "servers": [
      {
        "tag": "dns-remote",
        "address": "udp://1.1.1.1",
        "address_resolver": "dns-direct"
      },
      {
        "tag": "dns-trick-direct",
        "address": "https://sky.rethinkdns.com/",
        "detour": "direct-fragment"
      },
      {
        "tag": "dns-direct",
        "address": "223.5.5.5",
        "address_resolver": "dns-local",
        "detour": "direct"
      },
      {
        "tag": "dns-local",
        "address": "local",
        "detour": "direct"
      },
      {
        "tag": "dns-block",
        "address": "rcode://success"
      }
    ],
    "rules": [
      {
        "domain": "cp.cloudflare.com",
        "server": "dns-remote",
        "rewrite_ttl": 3000
      },
      {
        "rule_set": [
          "geoip-cn",
          "geosite-cn"
        ],
        "server": "dns-direct"
      }
    ],
    "final": "dns-remote",
    "static_ips": {
      "sky.rethinkdns.com": [
        "104.17.148.22",
        "104.17.147.22",
        "2606:4700:3030::6815:533e",
        "2606:4700:3030::ac43:d6f6",
        "104.21.83.62",
        "172.67.214.246"
      ]
    },
    "independent_cache": true
  },
  "inbounds": [
    {
      "type": "mixed",
      "tag": "mixed-in",
      "listen": "127.0.0.1",
      "listen_port": 12334,
      "sniff": true,
      "sniff_override_destination": true
    },
    {
      "type": "direct",
      "tag": "dns-in",
      "listen": "127.0.0.1",
      "listen_port": 16450
    }
  ],
  "outbounds": [
    {
      "type": "selector",
      "tag": "select",
      "outbounds": [
        "auto",
        "server_1 § 0",
        "server_2 § 1",
        "server_3 § 2",
        "server_4 § 3",
        "server_5 § 4",
        "server_6 § 5",
        "server_7 § 6",
        "server_8 § 7",
        "server_9 § 8",
        "server_10 § 9",
        "server_11 § 10",
        "server_12 § 11",
        "server_13 § 12",
        "server_14 § 13",
        "server_15 § 14",
        "server_16 § 15",
        "server_17 § 16",
        "server_18 § 17",
        "server_19 § 18",
        "server_20 § 19",
        "server_21 § 20",
        "server_22 § 21",
        "server_23 § 22",
        "server_24 § 23",
        "server_25 § 24",
        "server_26 § 25",
        "server_27 § 26",
        "server_28 § 27",
        "server_29 § 28",
        "server_30 § 29",
        "server_31 § 30",
        "server_32 § 31"
      ],
      "default": "auto"
    },
    {
      "type": "urltest",
      "tag": "auto",
      "outbounds": [
        "server_1 § 0",
        "server_2 § 1",
        "server_3 § 2",
        "server_4 § 3",
        "server_5 § 4",
        "server_6 § 5",
        "server_7 § 6",
        "server_8 § 7",
        "server_9 § 8",
        "server_10 § 9",
        "server_11 § 10",
        "server_12 § 11",
        "server_13 § 12",
        "server_14 § 13",
        "server_15 § 14",
        "server_16 § 15",
        "server_17 § 16",
        "server_18 § 17",
        "server_19 § 18",
        "server_20 § 19",
        "server_21 § 20",
        "server_22 § 21",
        "server_23 § 22",
        "server_24 § 23",
        "server_25 § 24",
        "server_26 § 25",
        "server_27 § 26",
        "server_28 § 27",
        "server_29 § 28",
        "server_30 § 29",
        "server_31 § 30",
        "server_32 § 31"
      ],
      "url": "http://connectivitycheck.gstatic.com/generate_204",
      "interval": "10m0s",
      "idle_timeout": "1h40m0s"
    },
    {
      "type": "vless",
      "tag": "server_1 § 0",
      "server": "66.42.93.205",
      "server_port": 25836,
      "uuid": "06ef7d23-b116-4de8-ac4b-febed66494fe",
      "transport": {
        "type": "ws",
        "path": "/",
        "headers": {
          "Host": "66.42.93.205"
        },
        "early_data_header_name": "Sec-WebSocket-Protocol"
      },
      "packet_encoding": "xudp"
    },
    {
      "type": "vless",
      "tag": "server_2 § 1",
      "server": "45.77.151.70",
      "server_port": 25836,
      "uuid": "06ef7d23-b116-4de8-ac4b-febed66494fe",
      "transport": {
        "type": "ws",
        "path": "/",
        "headers": {
          "Host": "45.77.151.70"
        },
        "early_data_header_name": "Sec-WebSocket-Protocol"
      },
      "packet_encoding": "xudp"
    },
    {
      "type": "vless",
      "tag": "server_3 § 2",
      "server": "155.138.222.136",
      "server_port": 25836,
      "uuid": "06ef7d23-b116-4de8-ac4b-febed66494fe",
      "transport": {
        "type": "ws",
        "path": "/",
        "headers": {
          "Host": "155.138.222.136"
        },
        "early_data_header_name": "Sec-WebSocket-Protocol"
      },
      "packet_encoding": "xudp"
    },
    {
      "type": "vless",
      "tag": "server_4 § 3",
      "server": "155.138.221.49",
      "server_port": 25836,
      "uuid": "06ef7d23-b116-4de8-ac4b-febed66494fe",
      "transport": {
        "type": "ws",
        "path": "/",
        "headers": {
          "Host": "155.138.221.49"
        },
        "early_data_header_name": "Sec-WebSocket-Protocol"
      },
      "packet_encoding": "xudp"
    },
    {
      "type": "vless",
      "tag": "server_5 § 4",
      "server": "207.246.97.175",
      "server_port": 25836,
      "uuid": "06ef7d23-b116-4de8-ac4b-febed66494fe",
      "transport": {
        "type": "ws",
        "path": "/",
        "headers": {
          "Host": "207.246.97.175"
        },
        "early_data_header_name": "Sec-WebSocket-Protocol"
      },
      "packet_encoding": "xudp"
    },
    {
      "type": "vless",
      "tag": "server_6 § 5",
      "server": "45.63.58.145",
      "server_port": 25836,
      "uuid": "06ef7d23-b116-4de8-ac4b-febed66494fe",
      "transport": {
        "type": "ws",
        "path": "/",
        "headers": {
          "Host": "45.63.58.145"
        },
        "early_data_header_name": "Sec-WebSocket-Protocol"
      },
      "packet_encoding": "xudp"
    },
    {
      "type": "vless",
      "tag": "server_7 § 6",
      "server": "45.32.72.129",
      "server_port": 25836,
      "uuid": "06ef7d23-b116-4de8-ac4b-febed66494fe",
      "transport": {
        "type": "ws",
        "path": "/",
        "headers": {
          "Host": "45.32.72.129"
        },
        "early_data_header_name": "Sec-WebSocket-Protocol"
      },
      "packet_encoding": "xudp"
    },
    {
      "type": "vless",
      "tag": "server_8 § 7",
      "server": "45.32.221.235",
      "server_port": 25836,
      "uuid": "06ef7d23-b116-4de8-ac4b-febed66494fe",
      "transport": {
        "type": "ws",
        "path": "/",
        "headers": {
          "Host": "45.32.221.235"
        },
        "early_data_header_name": "Sec-WebSocket-Protocol"
      },
      "packet_encoding": "xudp"
    },
    {
      "type": "vless",
      "tag": "server_9 § 8",
      "server": "45.32.77.195",
      "server_port": 25836,
      "uuid": "06ef7d23-b116-4de8-ac4b-febed66494fe",
      "transport": {
        "type": "ws",
        "path": "/",
        "headers": {
          "Host": "45.32.77.195"
        },
        "early_data_header_name": "Sec-WebSocket-Protocol"
      },
      "packet_encoding": "xudp"
    },
    {
      "type": "vless",
      "tag": "server_10 § 9",
      "server": "45.77.69.36",
      "server_port": 25836,
      "uuid": "06ef7d23-b116-4de8-ac4b-febed66494fe",
      "transport": {
        "type": "ws",
        "path": "/",
        "headers": {
          "Host": "45.77.69.36"
        },
        "early_data_header_name": "Sec-WebSocket-Protocol"
      },
      "packet_encoding": "xudp"
    },
    {
      "type": "vless",
      "tag": "server_11 § 10",
      "server": "66.135.5.221",
      "server_port": 25836,
      "uuid": "06ef7d23-b116-4de8-ac4b-febed66494fe",
      "transport": {
        "type": "ws",
        "path": "/",
        "headers": {
          "Host": "66.135.5.221"
        },
        "early_data_header_name": "Sec-WebSocket-Protocol"
      },
      "packet_encoding": "xudp"
    },
    {
      "type": "vless",
      "tag": "server_12 § 11",
      "server": "45.63.54.194",
      "server_port": 25836,
      "uuid": "06ef7d23-b116-4de8-ac4b-febed66494fe",
      "transport": {
        "type": "ws",
        "path": "/",
        "headers": {
          "Host": "45.63.54.194"
        },
        "early_data_header_name": "Sec-WebSocket-Protocol"
      },
      "packet_encoding": "xudp"
    },
    {
      "type": "vless",
      "tag": "server_13 § 12",
      "server": "45.77.100.243",
      "server_port": 25836,
      "uuid": "06ef7d23-b116-4de8-ac4b-febed66494fe",
      "transport": {
        "type": "ws",
        "path": "/",
        "headers": {
          "Host": "45.77.100.243"
        },
        "early_data_header_name": "Sec-WebSocket-Protocol"
      },
      "packet_encoding": "xudp"
    },
    {
      "type": "vless",
      "tag": "server_14 § 13",
      "server": "207.246.85.86",
      "server_port": 25836,
      "uuid": "06ef7d23-b116-4de8-ac4b-febed66494fe",
      "transport": {
        "type": "ws",
        "path": "/",
        "headers": {
          "Host": "207.246.85.86"
        },
        "early_data_header_name": "Sec-WebSocket-Protocol"
      },
      "packet_encoding": "xudp"
    },
    {
      "type": "vless",
      "tag": "server_15 § 14",
      "server": "155.138.215.36",
      "server_port": 25836,
      "uuid": "06ef7d23-b116-4de8-ac4b-febed66494fe",
      "transport": {
        "type": "ws",
        "path": "/",
        "headers": {
          "Host": "155.138.215.36"
        },
        "early_data_header_name": "Sec-WebSocket-Protocol"
      },
      "packet_encoding": "xudp"
    },
    {
      "type": "vless",
      "tag": "server_16 § 15",
      "server": "144.202.122.231",
      "server_port": 25836,
      "uuid": "06ef7d23-b116-4de8-ac4b-febed66494fe",
      "transport": {
        "type": "ws",
        "path": "/",
        "headers": {
          "Host": "144.202.122.231"
        },
        "early_data_header_name": "Sec-WebSocket-Protocol"
      },
      "packet_encoding": "xudp"
    },
    {
      "type": "vless",
      "tag": "server_17 § 16",
      "server": "45.77.121.94",
      "server_port": 25836,
      "uuid": "06ef7d23-b116-4de8-ac4b-febed66494fe",
      "transport": {
        "type": "ws",
        "path": "/",
        "headers": {
          "Host": "45.77.121.94"
        },
        "early_data_header_name": "Sec-WebSocket-Protocol"
      },
      "packet_encoding": "xudp"
    },
    {
      "type": "vless",
      "tag": "server_18 § 17",
      "server": "45.76.166.72",
      "server_port": 25836,
      "uuid": "06ef7d23-b116-4de8-ac4b-febed66494fe",
      "transport": {
        "type": "ws",
        "path": "/",
        "headers": {
          "Host": "45.76.166.72"
        },
        "early_data_header_name": "Sec-WebSocket-Protocol"
      },
      "packet_encoding": "xudp"
    },
    {
      "type": "vless",
      "tag": "server_19 § 18",
      "server": "45.63.51.244",
      "server_port": 25836,
      "uuid": "06ef7d23-b116-4de8-ac4b-febed66494fe",
      "transport": {
        "type": "ws",
        "path": "/",
        "headers": {
          "Host": "45.63.51.244"
        },
        "early_data_header_name": "Sec-WebSocket-Protocol"
      },
      "packet_encoding": "xudp"
    },
    {
      "type": "vless",
      "tag": "server_20 § 19",
      "server": "45.77.121.123",
      "server_port": 25836,
      "uuid": "06ef7d23-b116-4de8-ac4b-febed66494fe",
      "transport": {
        "type": "ws",
        "path": "/",
        "headers": {
          "Host": "45.77.121.123"
        },
        "early_data_header_name": "Sec-WebSocket-Protocol"
      },
      "packet_encoding": "xudp"
    },
    {
      "type": "vless",
      "tag": "server_21 § 20",
      "server": "96.30.193.83",
      "server_port": 25836,
      "uuid": "06ef7d23-b116-4de8-ac4b-febed66494fe",
      "transport": {
        "type": "ws",
        "path": "/",
        "headers": {
          "Host": "96.30.193.83"
        },
        "early_data_header_name": "Sec-WebSocket-Protocol"
      },
      "packet_encoding": "xudp"
    },
    {
      "type": "vless",
      "tag": "server_22 § 21",
      "server": "45.76.248.141",
      "server_port": 25836,
      "uuid": "06ef7d23-b116-4de8-ac4b-febed66494fe",
      "transport": {
        "type": "ws",
        "path": "/",
        "headers": {
          "Host": "45.76.248.141"
        },
        "early_data_header_name": "Sec-WebSocket-Protocol"
      },
      "packet_encoding": "xudp"
    },
    {
      "type": "vless",
      "tag": "server_23 § 22",
      "server": "144.202.123.198",
      "server_port": 25836,
      "uuid": "06ef7d23-b116-4de8-ac4b-febed66494fe",
      "transport": {
        "type": "ws",
        "path": "/",
        "headers": {
          "Host": "144.202.123.198"
        },
        "early_data_header_name": "Sec-WebSocket-Protocol"
      },
      "packet_encoding": "xudp"
    },
    {
      "type": "vless",
      "tag": "server_24 § 23",
      "server": "149.28.77.227",
      "server_port": 25836,
      "uuid": "06ef7d23-b116-4de8-ac4b-febed66494fe",
      "transport": {
        "type": "ws",
        "path": "/",
        "headers": {
          "Host": "149.28.77.227"
        },
        "early_data_header_name": "Sec-WebSocket-Protocol"
      },
      "packet_encoding": "xudp"
    },
    {
      "type": "vless",
      "tag": "server_25 § 24",
      "server": "104.156.224.124",
      "server_port": 25836,
      "uuid": "06ef7d23-b116-4de8-ac4b-febed66494fe",
      "transport": {
        "type": "ws",
        "path": "/",
        "headers": {
          "Host": "104.156.224.124"
        },
        "early_data_header_name": "Sec-WebSocket-Protocol"
      },
      "packet_encoding": "xudp"
    },
    {
      "type": "vless",
      "tag": "server_26 § 25",
      "server": "70.34.247.164",
      "server_port": 25836,
      "uuid": "06ef7d23-b116-4de8-ac4b-febed66494fe",
      "transport": {
        "type": "ws",
        "path": "/",
        "headers": {
          "Host": "70.34.247.164"
        },
        "early_data_header_name": "Sec-WebSocket-Protocol"
      },
      "packet_encoding": "xudp"
    },
    {
      "type": "vless",
      "tag": "server_27 § 26",
      "server": "70.34.247.219",
      "server_port": 25836,
      "uuid": "06ef7d23-b116-4de8-ac4b-febed66494fe",
      "transport": {
        "type": "ws",
        "path": "/",
        "headers": {
          "Host": "70.34.247.219"
        },
        "early_data_header_name": "Sec-WebSocket-Protocol"
      },
      "packet_encoding": "xudp"
    },
    {
      "type": "vless",
      "tag": "server_28 § 27",
      "server": "64.176.71.75",
      "server_port": 25836,
      "uuid": "06ef7d23-b116-4de8-ac4b-febed66494fe",
      "transport": {
        "type": "ws",
        "path": "/",
        "headers": {
          "Host": "64.176.71.75"
        },
        "early_data_header_name": "Sec-WebSocket-Protocol"
      },
      "packet_encoding": "xudp"
    },
    {
      "type": "vless",
      "tag": "server_29 § 28",
      "server": "64.176.71.90",
      "server_port": 25836,
      "uuid": "06ef7d23-b116-4de8-ac4b-febed66494fe",
      "transport": {
        "type": "ws",
        "path": "/",
        "headers": {
          "Host": "64.176.71.90"
        },
        "early_data_header_name": "Sec-WebSocket-Protocol"
      },
      "packet_encoding": "xudp"
    },
    {
      "type": "vless",
      "tag": "server_30 § 29",
      "server": "64.176.70.178",
      "server_port": 25836,
      "uuid": "06ef7d23-b116-4de8-ac4b-febed66494fe",
      "transport": {
        "type": "ws",
        "path": "/",
        "headers": {
          "Host": "64.176.70.178"
        },
        "early_data_header_name": "Sec-WebSocket-Protocol"
      },
      "packet_encoding": "xudp"
    },
    {
      "type": "vless",
      "tag": "server_31 § 30",
      "server": "70.34.244.137",
      "server_port": 25836,
      "uuid": "06ef7d23-b116-4de8-ac4b-febed66494fe",
      "transport": {
        "type": "ws",
        "path": "/",
        "headers": {
          "Host": "70.34.244.137"
        },
        "early_data_header_name": "Sec-WebSocket-Protocol"
      },
      "packet_encoding": "xudp"
    },
    {
      "type": "vless",
      "tag": "server_32 § 31",
      "server": "209.250.235.228",
      "server_port": 25836,
      "uuid": "06ef7d23-b116-4de8-ac4b-febed66494fe",
      "transport": {
        "type": "ws",
        "path": "/",
        "headers": {
          "Host": "209.250.235.228"
        },
        "early_data_header_name": "Sec-WebSocket-Protocol"
      },
      "packet_encoding": "xudp"
    },
    {
      "type": "dns",
      "tag": "dns-out"
    },
    {
      "type": "direct",
      "tag": "direct"
    },
    {
      "type": "direct",
      "tag": "direct-fragment",
      "tls_fragment": {
        "enabled": true,
        "size": "10-30",
        "sleep": "2-8"
      }
    },
    {
      "type": "direct",
      "tag": "bypass"
    },
    {
      "type": "block",
      "tag": "block"
    }
  ],
  "route": {
    "rules": [
      {
        "rule_set": [
          "geoip-cn",
          "geosite-cn"
        ],
        "outbound": "direct"
      },
      {
        "inbound": "dns-in",
        "outbound": "dns-out"
      },
      {
        "port": 53,
        "outbound": "dns-out"
      },
      {
        "clash_mode": "Direct",
        "outbound": "direct"
      },
      {
        "clash_mode": "Global",
        "outbound": "select"
      }
    ],
    "rule_set": [
      {
        "type": "remote",
        "tag": "geoip-cn",
        "format": "binary",
        "url": "https://raw.githubusercontent.com/hiddify/hiddify-geo/rule-set/country/geoip-cn.srs",
        "update_interval": "120h0m0s"
      },
      {
        "type": "remote",
        "tag": "geosite-cn",
        "format": "binary",
        "url": "https://raw.githubusercontent.com/hiddify/hiddify-geo/rule-set/country/geosite-cn.srs",
        "update_interval": "120h0m0s"
      }
    ],
    "final": "select",
    "auto_detect_interface": true,
    "override_android_vpn": true
  },
  "experimental": {
    "cache_file": {
      "enabled": true,
      "path": "clash.db"
    },
    "clash_api": {
      "external_controller": "127.0.0.1:16756",
      "secret": "LSIaeGJ0pMbAXZ1u"
    }
  }
}
