{
  "log": {
    "level": "debug",
    "timestamp": true
  },
  "experimental": {
    "clash_api": {
      "external_controller": "127.0.0.1:9090",
      "external_ui": "ui",
      "secret": "",
      "external_ui_download_url": "https://mirror.ghproxy.com/https://github.com/MetaCubeX/Yacd-meta/archive/gh-pages.zip",
      "external_ui_download_detour": "direct",
      "default_mode": "rule"
    },
    "cache_file": {
      "enabled": true,
      "store_fakeip": false
    }
  },
  "dns": {
    "servers": [
      {
        "tag": "proxyDns",
        "address": "tls://8.8.8.8",
        "detour": "proxy"
      },
      {
        "tag": "localDns",
        "address": "https://223.5.5.5/dns-query",
        "detour": "direct"
      },
      {
        "tag": "block",
        "address": "rcode://success"
      }
    ],
    "rules": [
      {
        "domain": [
          "ghproxy.com",
          "cdn.jsdelivr.net",
          "testingcf.jsdelivr.net"
        ],
        "server": "localDns"
      },
      {
        "rule_set": "geosite-category-ads-all",
        "server": "block"
      },
      {
        "outbound": "any",
        "server": "localDns",
        "disable_cache": true
      },
      {
        "rule_set": "geosite-cn",
        "server": "localDns"
      },
      {
        "clash_mode": "direct",
        "server": "localDns"
      },
      {
        "clash_mode": "global",
        "server": "proxyDns"
      },
      {
        "rule_set": "geosite-geolocation-!cn",
        "server": "proxyDns"
      }
    ],
    "final": "localDns",
    "strategy": "ipv4_only"
  },
  "inbounds": [
    {
      "type": "tun",
      "inet4_address": "172.19.0.1/30",
      "mtu": 9000,
      "auto_route": true,
      "strict_route": true,
      "sniff": true,
      "endpoint_independent_nat": false,
      "stack": "system",
      "platform": {
        "http_proxy": {
          "enabled": true,
          "server": "127.0.0.1",
          "server_port": 2080
        }
      }
    },
    {
      "type": "mixed",
      "listen": "127.0.0.1",
      "listen_port": 2080,
      "sniff": true,
      "users": []
    }
  ],
  "outbounds": [
    {
      "tag": "proxy",
      "type": "selector",
      "outbounds": [
        "auto",
        "direct",
        "去除12条不合适线路",
        "🇭🇰 白羊座-A/HK/推荐",
        "🇭🇰 白羊座-A/HK/备用",
        "🇯🇵 白羊座-A/JP/推荐",
        "🇯🇵 白羊座-A/JP/备用",
        "🇸🇬 白羊座-A/SG/推荐",
        "🇸🇬 白羊座-A/SG/备用",
        "🇭🇰 白羊座-B/HKA",
        "🇭🇰 白羊座-B/HKB",
        "🇭🇰 白羊座-B/HKC",
        "🇭🇰 白羊座-B/HKD",
        "🇭🇰 白羊座-B/HKE",
        "🇭🇰 白羊座-B/HKF",
        "🇭🇰 白羊座-B/HKG",
        "🇹🇼 白羊座-B/TWA",
        "🇹🇼 白羊座-B/TWB",
        "🇹🇼 白羊座-B/TWC",
        "🇺🇸 白羊座-B/USA",
        "🇺🇸 白羊座-B/USB",
        "🇺🇸 白羊座-B/USC",
        "🇺🇸 白羊座-B/USD",
        "🇺🇸 白羊座-B/USE",
        "🇺🇸 白羊座-B/USA/V",
        "🇺🇸 白羊座-B/USC/V",
        "🇸🇬 白羊座-D/SGA/V",
        "🇸🇬 白羊座-D/SGB/V",
        "🇸🇬 白羊座-D/SGC/V",
        "🇸🇬 白羊座-D/SGD/V",
        "🇸🇬 白羊座-D/SGE/V",
        "🇸🇬 白羊座-D/SGA",
        "🇸🇬 白羊座-D/SGA/Z",
        "🇸🇬 白羊座-D/SGB",
        "🇸🇬 白羊座-D/SGB/Z",
        "🇸🇬 白羊座-D/SGC",
        "🇸🇬 白羊座-D/SGC/Z",
        "🇸🇬 白羊座-D/SGD",
        "🇸🇬 白羊座-D/SGD/Z",
        "🇸🇬 白羊座-D/SGE",
        "🇸🇬 白羊座-D/SGE/Z",
        "🇸🇬 白羊座-D/SGF",
        "🇸🇬 白羊座-D/SGF/Z",
        "🇸🇬 白羊座-D/SGG",
        "🇸🇬 白羊座-D/SGG/Z",
        "🇸🇬 白羊座-D/SGH",
        "🇸🇬 白羊座-D/SGH/Z",
        "🇸🇬 白羊座-D/SGI",
        "🇸🇬 白羊座-D/SGI/Z",
        "🇸🇬 白羊座-D/SGJ",
        "🇸🇬 白羊座-D/SGJ/Z",
        "🇯🇵 白羊座-C/JPA/V",
        "🇯🇵 白羊座-A/JPB/V",
        "🇯🇵 白羊座-C/JPC/V",
        "🇯🇵 白羊座-C/JPD/V",
        "🇯🇵 白羊座-C/JPA",
        "🇯🇵 白羊座-C/JPA/Z",
        "🇯🇵 白羊座-C/JPB",
        "🇯🇵 白羊座-C/JPB/Z",
        "🇯🇵 白羊座-C/JPC",
        "🇯🇵 白羊座-C/JPC/Z",
        "🇯🇵 白羊座-C/JPD",
        "🇯🇵 白羊座-C/JPD/Z",
        "🇯🇵 白羊座-C/JPE",
        "🇯🇵 白羊座-C/JPE/Z",
        "🇯🇵 白羊座-C/JPF",
        "🇯🇵 白羊座-C/JPF/Z",
        "🇯🇵 白羊座-C/JPG",
        "🇯🇵 白羊座-C/JPG/Z",
        "🇯🇵 白羊座-C/JPH",
        "🇯🇵 白羊座-C/JPH/Z",
        "🇯🇵 白羊座-C/JPI",
        "🇯🇵 白羊座-C/JPI/Z",
        "🇯🇵 白羊座-C/JPJ",
        "🇯🇵 白羊座-C/JPJ/Z",
        "🇦🇷 白羊座-C/阿根廷A",
        "🇦🇷 白羊座-C/阿根廷B",
        "🇦🇷 白羊座-C/阿根廷/备用"
      ]
    },
    {
      "tag": "OpenAI",
      "type": "selector",
      "outbounds": [
        "TaiWan",
        "Singapore",
        "Japan",
        "America",
        "Others"
      ],
      "default": "America"
    },
    {
      "tag": "Google",
      "type": "selector",
      "outbounds": [
        "HongKong",
        "TaiWan",
        "Singapore",
        "Japan",
        "America",
        "Others"
      ]
    },
    {
      "tag": "Telegram",
      "type": "selector",
      "outbounds": [
        "HongKong",
        "TaiWan",
        "Singapore",
        "Japan",
        "America",
        "Others"
      ]
    },
    {
      "tag": "Twitter",
      "type": "selector",
      "outbounds": [
        "HongKong",
        "TaiWan",
        "Singapore",
        "Japan",
        "America",
        "Others"
      ]
    },
    {
      "tag": "Facebook",
      "type": "selector",
      "outbounds": [
        "HongKong",
        "TaiWan",
        "Singapore",
        "Japan",
        "America",
        "Others"
      ]
    },
    {
      "tag": "BiliBili",
      "type": "selector",
      "outbounds": [
        "direct",
        "HongKong",
        "TaiWan"
      ]
    },
    {
      "tag": "Bahamut",
      "type": "selector",
      "outbounds": [
        "HongKong",
        "TaiWan",
        "Singapore",
        "Japan",
        "America",
        "Others"
      ],
      "default": "TaiWan"
    },
    {
      "tag": "Spotify",
      "type": "selector",
      "outbounds": [
        "HongKong",
        "TaiWan",
        "Singapore",
        "Japan",
        "America",
        "Others"
      ]
    },
    {
      "tag": "TikTok",
      "type": "selector",
      "outbounds": [
        "HongKong",
        "TaiWan",
        "Singapore",
        "Japan",
        "America"
      ],
      "default": "Singapore"
    },
    {
      "tag": "NETFLIX",
      "type": "selector",
      "outbounds": [
        "HongKong",
        "TaiWan",
        "Singapore",
        "Japan",
        "America",
        "Others"
      ]
    },
    {
      "tag": "Disney+",
      "type": "selector",
      "outbounds": [
        "HongKong",
        "TaiWan",
        "Singapore",
        "Japan",
        "America",
        "Others"
      ]
    },
    {
      "tag": "Apple",
      "type": "selector",
      "outbounds": [
        "direct",
        "HongKong",
        "TaiWan",
        "Singapore",
        "Japan",
        "America",
        "Others"
      ]
    },
    {
      "tag": "Microsoft",
      "type": "selector",
      "outbounds": [
        "direct",
        "HongKong",
        "TaiWan",
        "Singapore",
        "Japan",
        "America",
        "Others"
      ]
    },
    {
      "tag": "Games",
      "type": "selector",
      "outbounds": [
        "direct",
        "HongKong",
        "TaiWan",
        "Singapore",
        "Japan",
        "America",
        "Others"
      ]
    },
    {
      "tag": "Streaming",
      "type": "selector",
      "outbounds": [
        "HongKong",
        "TaiWan",
        "Singapore",
        "Japan",
        "America",
        "Others"
      ]
    },
    {
      "tag": "Global",
      "type": "selector",
      "outbounds": [
        "direct",
        "HongKong",
        "TaiWan",
        "Singapore",
        "Japan",
        "America",
        "Others"
      ],
      "default": "HongKong"
    },
    {
      "tag": "China",
      "type": "selector",
      "outbounds": [
        "direct",
        "proxy"
      ]
    },
    {
      "tag": "AdBlock",
      "type": "selector",
      "outbounds": [
        "block",
        "direct"
      ]
    },
    {
      "tag": "HongKong",
      "type": "selector",
      "outbounds": [
        "🇭🇰 白羊座-A/HK/推荐",
        "🇭🇰 白羊座-A/HK/备用",
        "🇭🇰 白羊座-B/HKA",
        "🇭🇰 白羊座-B/HKB",
        "🇭🇰 白羊座-B/HKC",
        "🇭🇰 白羊座-B/HKD",
        "🇭🇰 白羊座-B/HKE",
        "🇭🇰 白羊座-B/HKF",
        "🇭🇰 白羊座-B/HKG",
        "proxy"
      ]
    },
    {
      "tag": "TaiWan",
      "type": "selector",
      "outbounds": [
        "🇹🇼 白羊座-B/TWA",
        "🇹🇼 白羊座-B/TWB",
        "🇹🇼 白羊座-B/TWC",
        "proxy"
      ]
    },
    {
      "tag": "Singapore",
      "type": "selector",
      "outbounds": [
        "🇸🇬 白羊座-A/SG/推荐",
        "🇸🇬 白羊座-A/SG/备用",
        "🇸🇬 白羊座-D/SGA/V",
        "🇸🇬 白羊座-D/SGB/V",
        "🇸🇬 白羊座-D/SGC/V",
        "🇸🇬 白羊座-D/SGD/V",
        "🇸🇬 白羊座-D/SGE/V",
        "🇸🇬 白羊座-D/SGA",
        "🇸🇬 白羊座-D/SGA/Z",
        "🇸🇬 白羊座-D/SGB",
        "🇸🇬 白羊座-D/SGB/Z",
        "🇸🇬 白羊座-D/SGC",
        "🇸🇬 白羊座-D/SGC/Z",
        "🇸🇬 白羊座-D/SGD",
        "🇸🇬 白羊座-D/SGD/Z",
        "🇸🇬 白羊座-D/SGE",
        "🇸🇬 白羊座-D/SGE/Z",
        "🇸🇬 白羊座-D/SGF",
        "🇸🇬 白羊座-D/SGF/Z",
        "🇸🇬 白羊座-D/SGG",
        "🇸🇬 白羊座-D/SGG/Z",
        "🇸🇬 白羊座-D/SGH",
        "🇸🇬 白羊座-D/SGH/Z",
        "🇸🇬 白羊座-D/SGI",
        "🇸🇬 白羊座-D/SGI/Z",
        "🇸🇬 白羊座-D/SGJ",
        "🇸🇬 白羊座-D/SGJ/Z",
        "proxy"
      ]
    },
    {
      "tag": "Japan",
      "type": "selector",
      "outbounds": [
        "🇯🇵 白羊座-A/JP/推荐",
        "🇯🇵 白羊座-A/JP/备用",
        "🇯🇵 白羊座-C/JPA/V",
        "🇯🇵 白羊座-A/JPB/V",
        "🇯🇵 白羊座-C/JPC/V",
        "🇯🇵 白羊座-C/JPD/V",
        "🇯🇵 白羊座-C/JPA",
        "🇯🇵 白羊座-C/JPA/Z",
        "🇯🇵 白羊座-C/JPB",
        "🇯🇵 白羊座-C/JPB/Z",
        "🇯🇵 白羊座-C/JPC",
        "🇯🇵 白羊座-C/JPC/Z",
        "🇯🇵 白羊座-C/JPD",
        "🇯🇵 白羊座-C/JPD/Z",
        "🇯🇵 白羊座-C/JPE",
        "🇯🇵 白羊座-C/JPE/Z",
        "🇯🇵 白羊座-C/JPF",
        "🇯🇵 白羊座-C/JPF/Z",
        "🇯🇵 白羊座-C/JPG",
        "🇯🇵 白羊座-C/JPG/Z",
        "🇯🇵 白羊座-C/JPH",
        "🇯🇵 白羊座-C/JPH/Z",
        "🇯🇵 白羊座-C/JPI",
        "🇯🇵 白羊座-C/JPI/Z",
        "🇯🇵 白羊座-C/JPJ",
        "🇯🇵 白羊座-C/JPJ/Z",
        "proxy"
      ]
    },
    {
      "tag": "America",
      "type": "selector",
      "outbounds": [
        "🇺🇸 白羊座-B/USA",
        "🇺🇸 白羊座-B/USB",
        "🇺🇸 白羊座-B/USC",
        "🇺🇸 白羊座-B/USD",
        "🇺🇸 白羊座-B/USE",
        "🇺🇸 白羊座-B/USA/V",
        "🇺🇸 白羊座-B/USC/V",
        "proxy"
      ]
    },
    {
      "tag": "Others",
      "type": "selector",
      "outbounds": [
        "去除12条不合适线路",
        "🇦🇷 白羊座-C/阿根廷A",
        "🇦🇷 白羊座-C/阿根廷B",
        "🇦🇷 白羊座-C/阿根廷/备用",
        "proxy"
      ]
    },
    {
      "tag": "auto",
      "type": "urltest",
      "outbounds": [
        "去除12条不合适线路",
        "🇭🇰 白羊座-A/HK/推荐",
        "🇭🇰 白羊座-A/HK/备用",
        "🇯🇵 白羊座-A/JP/推荐",
        "🇯🇵 白羊座-A/JP/备用",
        "🇸🇬 白羊座-A/SG/推荐",
        "🇸🇬 白羊座-A/SG/备用",
        "🇭🇰 白羊座-B/HKA",
        "🇭🇰 白羊座-B/HKB",
        "🇭🇰 白羊座-B/HKC",
        "🇭🇰 白羊座-B/HKD",
        "🇭🇰 白羊座-B/HKE",
        "🇭🇰 白羊座-B/HKF",
        "🇭🇰 白羊座-B/HKG",
        "🇹🇼 白羊座-B/TWA",
        "🇹🇼 白羊座-B/TWB",
        "🇹🇼 白羊座-B/TWC",
        "🇺🇸 白羊座-B/USA",
        "🇺🇸 白羊座-B/USB",
        "🇺🇸 白羊座-B/USC",
        "🇺🇸 白羊座-B/USD",
        "🇺🇸 白羊座-B/USE",
        "🇺🇸 白羊座-B/USA/V",
        "🇺🇸 白羊座-B/USC/V",
        "🇸🇬 白羊座-D/SGA/V",
        "🇸🇬 白羊座-D/SGB/V",
        "🇸🇬 白羊座-D/SGC/V",
        "🇸🇬 白羊座-D/SGD/V",
        "🇸🇬 白羊座-D/SGE/V",
        "🇸🇬 白羊座-D/SGA",
        "🇸🇬 白羊座-D/SGA/Z",
        "🇸🇬 白羊座-D/SGB",
        "🇸🇬 白羊座-D/SGB/Z",
        "🇸🇬 白羊座-D/SGC",
        "🇸🇬 白羊座-D/SGC/Z",
        "🇸🇬 白羊座-D/SGD",
        "🇸🇬 白羊座-D/SGD/Z",
        "🇸🇬 白羊座-D/SGE",
        "🇸🇬 白羊座-D/SGE/Z",
        "🇸🇬 白羊座-D/SGF",
        "🇸🇬 白羊座-D/SGF/Z",
        "🇸🇬 白羊座-D/SGG",
        "🇸🇬 白羊座-D/SGG/Z",
        "🇸🇬 白羊座-D/SGH",
        "🇸🇬 白羊座-D/SGH/Z",
        "🇸🇬 白羊座-D/SGI",
        "🇸🇬 白羊座-D/SGI/Z",
        "🇸🇬 白羊座-D/SGJ",
        "🇸🇬 白羊座-D/SGJ/Z",
        "🇯🇵 白羊座-C/JPA/V",
        "🇯🇵 白羊座-A/JPB/V",
        "🇯🇵 白羊座-C/JPC/V",
        "🇯🇵 白羊座-C/JPD/V",
        "🇯🇵 白羊座-C/JPA",
        "🇯🇵 白羊座-C/JPA/Z",
        "🇯🇵 白羊座-C/JPB",
        "🇯🇵 白羊座-C/JPB/Z",
        "🇯🇵 白羊座-C/JPC",
        "🇯🇵 白羊座-C/JPC/Z",
        "🇯🇵 白羊座-C/JPD",
        "🇯🇵 白羊座-C/JPD/Z",
        "🇯🇵 白羊座-C/JPE",
        "🇯🇵 白羊座-C/JPE/Z",
        "🇯🇵 白羊座-C/JPF",
        "🇯🇵 白羊座-C/JPF/Z",
        "🇯🇵 白羊座-C/JPG",
        "🇯🇵 白羊座-C/JPG/Z",
        "🇯🇵 白羊座-C/JPH",
        "🇯🇵 白羊座-C/JPH/Z",
        "🇯🇵 白羊座-C/JPI",
        "🇯🇵 白羊座-C/JPI/Z",
        "🇯🇵 白羊座-C/JPJ",
        "🇯🇵 白羊座-C/JPJ/Z",
        "🇦🇷 白羊座-C/阿根廷A",
        "🇦🇷 白羊座-C/阿根廷B",
        "🇦🇷 白羊座-C/阿根廷/备用"
      ],
      "url": "http://www.gstatic.com/generate_204",
      "interval": "10m",
      "tolerance": 50
    },
    {
      "type": "direct",
      "tag": "direct"
    },
    {
      "type": "dns",
      "tag": "dns-out"
    },
    {
      "type": "block",
      "tag": "block"
    },
    {
      "tag": "去除12条不合适线路",
      "type": "hysteria2",
      "server": "by-hk.alicdn.win",
      "server_port": 56892,
      "password": "4690b9f9-a3ad-4065-afb0-155aa19cd495",
      "up_mbps": 30,
      "down_mbps": 30,
      "tls": {
        "enabled": true,
        "server_name": "addons.mozilla.org",
        "insecure": true,
        "alpn": [
          "h3"
        ]
      }
    },
    {
      "tag": "🇭🇰 白羊座-A/HK/推荐",
      "type": "hysteria2",
      "server": "by-hk.alicdn.win",
      "server_port": 56892,
      "password": "4690b9f9-a3ad-4065-afb0-155aa19cd495",
      "up_mbps": 30,
      "down_mbps": 30,
      "tls": {
        "enabled": true,
        "server_name": "addons.mozilla.org",
        "insecure": true,
        "alpn": [
          "h3"
        ]
      }
    },
    {
      "tag": "🇭🇰 白羊座-A/HK/备用",
      "type": "hysteria2",
      "server": "by-hk-v6.alicdn.win",
      "server_port": 56892,
      "password": "4690b9f9-a3ad-4065-afb0-155aa19cd495",
      "up_mbps": 30,
      "down_mbps": 30,
      "tls": {
        "enabled": true,
        "server_name": "addons.mozilla.org",
        "insecure": true,
        "alpn": [
          "h3"
        ]
      }
    },
    {
      "tag": "🇯🇵 白羊座-A/JP/推荐",
      "type": "hysteria2",
      "server": "by-jp.alicdn.win",
      "server_port": 56894,
      "password": "4690b9f9-a3ad-4065-afb0-155aa19cd495",
      "up_mbps": 200,
      "down_mbps": 200,
      "tls": {
        "enabled": true,
        "server_name": "www.bing.com",
        "insecure": true,
        "alpn": [
          "h3"
        ]
      }
    },
    {
      "tag": "🇯🇵 白羊座-A/JP/备用",
      "type": "hysteria2",
      "server": "by-jp-v6.alicdn.win",
      "server_port": 56894,
      "password": "4690b9f9-a3ad-4065-afb0-155aa19cd495",
      "up_mbps": 200,
      "down_mbps": 200,
      "tls": {
        "enabled": true,
        "server_name": "www.bing.com",
        "insecure": true,
        "alpn": [
          "h3"
        ]
      }
    },
    {
      "tag": "🇸🇬 白羊座-A/SG/推荐",
      "type": "hysteria2",
      "server": "by-sg.alicdn.win",
      "server_port": 56893,
      "password": "4690b9f9-a3ad-4065-afb0-155aa19cd495",
      "up_mbps": 200,
      "down_mbps": 200,
      "tls": {
        "enabled": true,
        "server_name": "www.icloud.com",
        "insecure": true,
        "alpn": [
          "h3"
        ]
      }
    },
    {
      "tag": "🇸🇬 白羊座-A/SG/备用",
      "type": "hysteria2",
      "server": "by-sg-v6.alicdn.win",
      "server_port": 56893,
      "password": "4690b9f9-a3ad-4065-afb0-155aa19cd495",
      "up_mbps": 200,
      "down_mbps": 200,
      "tls": {
        "enabled": true,
        "server_name": "www.icloud.com",
        "insecure": true,
        "alpn": [
          "h3"
        ]
      }
    },
    {
      "tag": "🇭🇰 白羊座-B/HKA",
      "type": "hysteria2",
      "server": "by-hka.alicdn.win",
      "server_port": 56892,
      "password": "4690b9f9-a3ad-4065-afb0-155aa19cd495",
      "up_mbps": 30,
      "down_mbps": 30,
      "tls": {
        "enabled": true,
        "server_name": "addons.mozilla.org",
        "insecure": true,
        "alpn": [
          "h3"
        ]
      }
    },
    {
      "tag": "🇭🇰 白羊座-B/HKB",
      "type": "hysteria2",
      "server": "by-hkb.alicdn.win",
      "server_port": 56892,
      "password": "4690b9f9-a3ad-4065-afb0-155aa19cd495",
      "up_mbps": 30,
      "down_mbps": 30,
      "tls": {
        "enabled": true,
        "server_name": "addons.mozilla.org",
        "insecure": true,
        "alpn": [
          "h3"
        ]
      }
    },
    {
      "tag": "🇭🇰 白羊座-B/HKC",
      "type": "hysteria2",
      "server": "by-hkc.alicdn.win",
      "server_port": 56892,
      "password": "4690b9f9-a3ad-4065-afb0-155aa19cd495",
      "up_mbps": 30,
      "down_mbps": 30,
      "tls": {
        "enabled": true,
        "server_name": "addons.mozilla.org",
        "insecure": true,
        "alpn": [
          "h3"
        ]
      }
    },
    {
      "tag": "🇭🇰 白羊座-B/HKD",
      "type": "hysteria2",
      "server": "by-hkd.alicdn.win",
      "server_port": 56892,
      "password": "4690b9f9-a3ad-4065-afb0-155aa19cd495",
      "up_mbps": 30,
      "down_mbps": 30,
      "tls": {
        "enabled": true,
        "server_name": "addons.mozilla.org",
        "insecure": true,
        "alpn": [
          "h3"
        ]
      }
    },
    {
      "tag": "🇭🇰 白羊座-B/HKE",
      "type": "hysteria2",
      "server": "by-hke.alicdn.win",
      "server_port": 56892,
      "password": "4690b9f9-a3ad-4065-afb0-155aa19cd495",
      "up_mbps": 30,
      "down_mbps": 30,
      "tls": {
        "enabled": true,
        "server_name": "addons.mozilla.org",
        "insecure": true,
        "alpn": [
          "h3"
        ]
      }
    },
    {
      "tag": "🇭🇰 白羊座-B/HKF",
      "type": "hysteria2",
      "server": "by-hkf.alicdn.win",
      "server_port": 56892,
      "password": "4690b9f9-a3ad-4065-afb0-155aa19cd495",
      "up_mbps": 30,
      "down_mbps": 30,
      "tls": {
        "enabled": true,
        "server_name": "addons.mozilla.org",
        "insecure": true,
        "alpn": [
          "h3"
        ]
      }
    },
    {
      "tag": "🇭🇰 白羊座-B/HKG",
      "type": "hysteria2",
      "server": "by-hkg.alicdn.win",
      "server_port": 56892,
      "password": "4690b9f9-a3ad-4065-afb0-155aa19cd495",
      "up_mbps": 30,
      "down_mbps": 30,
      "tls": {
        "enabled": true,
        "server_name": "addons.mozilla.org",
        "insecure": true,
        "alpn": [
          "h3"
        ]
      }
    },
    {
      "tag": "🇹🇼 白羊座-B/TWA",
      "type": "hysteria2",
      "server": "by-twa.alicdn.win",
      "server_port": 16890,
      "password": "4690b9f9-a3ad-4065-afb0-155aa19cd495",
      "up_mbps": 30,
      "down_mbps": 30,
      "tls": {
        "enabled": true,
        "server_name": "www.bing.com",
        "insecure": true,
        "alpn": [
          "h3"
        ]
      }
    },
    {
      "tag": "🇹🇼 白羊座-B/TWB",
      "type": "hysteria2",
      "server": "by-twb.alicdn.win",
      "server_port": 16891,
      "password": "4690b9f9-a3ad-4065-afb0-155aa19cd495",
      "up_mbps": 30,
      "down_mbps": 30,
      "tls": {
        "enabled": true,
        "server_name": "www.bing.com",
        "insecure": true,
        "alpn": [
          "h3"
        ]
      }
    },
    {
      "tag": "🇹🇼 白羊座-B/TWC",
      "type": "hysteria2",
      "server": "by-twc.alicdn.win",
      "server_port": 16892,
      "password": "4690b9f9-a3ad-4065-afb0-155aa19cd495",
      "up_mbps": 30,
      "down_mbps": 30,
      "tls": {
        "enabled": true,
        "server_name": "www.bing.com",
        "insecure": true,
        "alpn": [
          "h3"
        ]
      }
    },
    {
      "tag": "🇺🇸 白羊座-B/USA",
      "type": "hysteria2",
      "server": "by-usa.alicdn.win",
      "server_port": 56770,
      "password": "4690b9f9-a3ad-4065-afb0-155aa19cd495",
      "up_mbps": 200,
      "down_mbps": 200,
      "tls": {
        "enabled": true,
        "server_name": "www.bing.com",
        "insecure": true,
        "alpn": [
          "h3"
        ]
      }
    },
    {
      "tag": "🇺🇸 白羊座-B/USB",
      "type": "hysteria2",
      "server": "by-usb-v6.alicdn.win",
      "server_port": 56770,
      "password": "4690b9f9-a3ad-4065-afb0-155aa19cd495",
      "up_mbps": 200,
      "down_mbps": 200,
      "tls": {
        "enabled": true,
        "server_name": "www.bing.com",
        "insecure": true,
        "alpn": [
          "h3"
        ]
      }
    },
    {
      "tag": "🇺🇸 白羊座-B/USC",
      "type": "hysteria2",
      "server": "by-usc.alicdn.win",
      "server_port": 56771,
      "password": "4690b9f9-a3ad-4065-afb0-155aa19cd495",
      "up_mbps": 200,
      "down_mbps": 200,
      "tls": {
        "enabled": true,
        "server_name": "www.bing.com",
        "insecure": true,
        "alpn": [
          "h3"
        ]
      }
    },
    {
      "tag": "🇺🇸 白羊座-B/USD",
      "type": "hysteria2",
      "server": "by-usd.alicdn.win",
      "server_port": 56770,
      "password": "4690b9f9-a3ad-4065-afb0-155aa19cd495",
      "up_mbps": 200,
      "down_mbps": 200,
      "tls": {
        "enabled": true,
        "server_name": "www.bing.com",
        "insecure": true,
        "alpn": [
          "h3"
        ]
      }
    },
    {
      "tag": "🇺🇸 白羊座-B/USE",
      "type": "hysteria2",
      "server": "by-use.alicdn.win",
      "server_port": 56770,
      "password": "4690b9f9-a3ad-4065-afb0-155aa19cd495",
      "up_mbps": 200,
      "down_mbps": 200,
      "tls": {
        "enabled": true,
        "server_name": "www.bing.com",
        "insecure": true,
        "alpn": [
          "h3"
        ]
      }
    },
    {
      "tag": "🇺🇸 白羊座-B/USA/V",
      "type": "hysteria2",
      "server": "by-usa-v6.alicdn.win",
      "server_port": 56770,
      "password": "4690b9f9-a3ad-4065-afb0-155aa19cd495",
      "up_mbps": 200,
      "down_mbps": 200,
      "tls": {
        "enabled": true,
        "server_name": "www.bing.com",
        "insecure": true,
        "alpn": [
          "h3"
        ]
      }
    },
    {
      "tag": "🇺🇸 白羊座-B/USC/V",
      "type": "hysteria2",
      "server": "by-usc-v6.alicdn.win",
      "server_port": 56771,
      "password": "4690b9f9-a3ad-4065-afb0-155aa19cd495",
      "up_mbps": 200,
      "down_mbps": 200,
      "tls": {
        "enabled": true,
        "server_name": "www.bing.com",
        "insecure": true,
        "alpn": [
          "h3"
        ]
      }
    },
    {
      "tag": "🇸🇬 白羊座-D/SGA/V",
      "type": "hysteria2",
      "server": "by-sga-v6.alicdn.win",
      "server_port": 16660,
      "password": "4690b9f9-a3ad-4065-afb0-155aa19cd495",
      "up_mbps": 200,
      "down_mbps": 200,
      "tls": {
        "enabled": true,
        "server_name": "www.icloud.com",
        "insecure": true,
        "alpn": [
          "h3"
        ]
      }
    },
    {
      "tag": "🇸🇬 白羊座-D/SGB/V",
      "type": "hysteria2",
      "server": "by-sgb-v6.alicdn.win",
      "server_port": 16661,
      "password": "4690b9f9-a3ad-4065-afb0-155aa19cd495",
      "up_mbps": 200,
      "down_mbps": 200,
      "tls": {
        "enabled": true,
        "server_name": "www.icloud.com",
        "insecure": true,
        "alpn": [
          "h3"
        ]
      }
    },
    {
      "tag": "🇸🇬 白羊座-D/SGC/V",
      "type": "hysteria2",
      "server": "by-sgc-v6.alicdn.win",
      "server_port": 16662,
      "password": "4690b9f9-a3ad-4065-afb0-155aa19cd495",
      "up_mbps": 200,
      "down_mbps": 200,
      "tls": {
        "enabled": true,
        "server_name": "www.icloud.com",
        "insecure": true,
        "alpn": [
          "h3"
        ]
      }
    },
    {
      "tag": "🇸🇬 白羊座-D/SGD/V",
      "type": "hysteria2",
      "server": "by-sgd-v6.alicdn.win",
      "server_port": 16663,
      "password": "4690b9f9-a3ad-4065-afb0-155aa19cd495",
      "up_mbps": 200,
      "down_mbps": 200,
      "tls": {
        "enabled": true,
        "server_name": "www.icloud.com",
        "insecure": true,
        "alpn": [
          "h3"
        ]
      }
    },
    {
      "tag": "🇸🇬 白羊座-D/SGE/V",
      "type": "hysteria2",
      "server": "by-sge-v6.alicdn.win",
      "server_port": 16664,
      "password": "4690b9f9-a3ad-4065-afb0-155aa19cd495",
      "up_mbps": 200,
      "down_mbps": 200,
      "tls": {
        "enabled": true,
        "server_name": "www.icloud.com",
        "insecure": true,
        "alpn": [
          "h3"
        ]
      }
    },
    {
      "tag": "🇸🇬 白羊座-D/SGA",
      "type": "hysteria2",
      "server": "by-sga.alicdn.win",
      "server_port": 6860,
      "password": "4690b9f9-a3ad-4065-afb0-155aa19cd495",
      "up_mbps": 200,
      "down_mbps": 200,
      "tls": {
        "enabled": true,
        "server_name": "www.icloud.com",
        "insecure": true,
        "alpn": [
          "h3"
        ]
      }
    },
    {
      "tag": "🇸🇬 白羊座-D/SGA/Z",
      "type": "hysteria2",
      "server": "edu-sga.alicdn.win",
      "server_port": 16660,
      "password": "4690b9f9-a3ad-4065-afb0-155aa19cd495",
      "up_mbps": 200,
      "down_mbps": 200,
      "tls": {
        "enabled": true,
        "server_name": "www.icloud.com",
        "insecure": true,
        "alpn": [
          "h3"
        ]
      }
    },
    {
      "tag": "🇸🇬 白羊座-D/SGB",
      "type": "hysteria2",
      "server": "by-sgb.alicdn.win",
      "server_port": 6861,
      "password": "4690b9f9-a3ad-4065-afb0-155aa19cd495",
      "up_mbps": 200,
      "down_mbps": 200,
      "tls": {
        "enabled": true,
        "server_name": "www.icloud.com",
        "insecure": true,
        "alpn": [
          "h3"
        ]
      }
    },
    {
      "tag": "🇸🇬 白羊座-D/SGB/Z",
      "type": "hysteria2",
      "server": "edu-sgb.alicdn.win",
      "server_port": 16661,
      "password": "4690b9f9-a3ad-4065-afb0-155aa19cd495",
      "up_mbps": 200,
      "down_mbps": 200,
      "tls": {
        "enabled": true,
        "server_name": "www.icloud.com",
        "insecure": true,
        "alpn": [
          "h3"
        ]
      }
    },
    {
      "tag": "🇸🇬 白羊座-D/SGC",
      "type": "hysteria2",
      "server": "by-sgc.alicdn.win",
      "server_port": 6862,
      "password": "4690b9f9-a3ad-4065-afb0-155aa19cd495",
      "up_mbps": 200,
      "down_mbps": 200,
      "tls": {
        "enabled": true,
        "server_name": "www.icloud.com",
        "insecure": true,
        "alpn": [
          "h3"
        ]
      }
    },
    {
      "tag": "🇸🇬 白羊座-D/SGC/Z",
      "type": "hysteria2",
      "server": "edu-sgc.alicdn.win",
      "server_port": 16662,
      "password": "4690b9f9-a3ad-4065-afb0-155aa19cd495",
      "up_mbps": 200,
      "down_mbps": 200,
      "tls": {
        "enabled": true,
        "server_name": "www.icloud.com",
        "insecure": true,
        "alpn": [
          "h3"
        ]
      }
    },
    {
      "tag": "🇸🇬 白羊座-D/SGD",
      "type": "hysteria2",
      "server": "by-sgd.alicdn.win",
      "server_port": 6863,
      "password": "4690b9f9-a3ad-4065-afb0-155aa19cd495",
      "up_mbps": 200,
      "down_mbps": 200,
      "tls": {
        "enabled": true,
        "server_name": "www.icloud.com",
        "insecure": true,
        "alpn": [
          "h3"
        ]
      }
    },
    {
      "tag": "🇸🇬 白羊座-D/SGD/Z",
      "type": "hysteria2",
      "server": "edu-sgd.alicdn.win",
      "server_port": 16663,
      "password": "4690b9f9-a3ad-4065-afb0-155aa19cd495",
      "up_mbps": 200,
      "down_mbps": 200,
      "tls": {
        "enabled": true,
        "server_name": "www.icloud.com",
        "insecure": true,
        "alpn": [
          "h3"
        ]
      }
    },
    {
      "tag": "🇸🇬 白羊座-D/SGE",
      "type": "hysteria2",
      "server": "by-sge.alicdn.win",
      "server_port": 6864,
      "password": "4690b9f9-a3ad-4065-afb0-155aa19cd495",
      "up_mbps": 200,
      "down_mbps": 200,
      "tls": {
        "enabled": true,
        "server_name": "www.icloud.com",
        "insecure": true,
        "alpn": [
          "h3"
        ]
      }
    },
    {
      "tag": "🇸🇬 白羊座-D/SGE/Z",
      "type": "hysteria2",
      "server": "edu-sge.alicdn.win",
      "server_port": 16664,
      "password": "4690b9f9-a3ad-4065-afb0-155aa19cd495",
      "up_mbps": 200,
      "down_mbps": 200,
      "tls": {
        "enabled": true,
        "server_name": "www.icloud.com",
        "insecure": true,
        "alpn": [
          "h3"
        ]
      }
    },
    {
      "tag": "🇸🇬 白羊座-D/SGF",
      "type": "hysteria2",
      "server": "by-sgf.alicdn.win",
      "server_port": 6865,
      "password": "4690b9f9-a3ad-4065-afb0-155aa19cd495",
      "up_mbps": 200,
      "down_mbps": 200,
      "tls": {
        "enabled": true,
        "server_name": "www.icloud.com",
        "insecure": true,
        "alpn": [
          "h3"
        ]
      }
    },
    {
      "tag": "🇸🇬 白羊座-D/SGF/Z",
      "type": "hysteria2",
      "server": "edu-sgf.alicdn.win",
      "server_port": 16665,
      "password": "4690b9f9-a3ad-4065-afb0-155aa19cd495",
      "up_mbps": 200,
      "down_mbps": 200,
      "tls": {
        "enabled": true,
        "server_name": "www.icloud.com",
        "insecure": true,
        "alpn": [
          "h3"
        ]
      }
    },
    {
      "tag": "🇸🇬 白羊座-D/SGG",
      "type": "hysteria2",
      "server": "by-sgg.alicdn.win",
      "server_port": 6866,
      "password": "4690b9f9-a3ad-4065-afb0-155aa19cd495",
      "up_mbps": 200,
      "down_mbps": 200,
      "tls": {
        "enabled": true,
        "server_name": "www.icloud.com",
        "insecure": true,
        "alpn": [
          "h3"
        ]
      }
    },
    {
      "tag": "🇸🇬 白羊座-D/SGG/Z",
      "type": "hysteria2",
      "server": "edu-sgg.alicdn.win",
      "server_port": 16666,
      "password": "4690b9f9-a3ad-4065-afb0-155aa19cd495",
      "up_mbps": 200,
      "down_mbps": 200,
      "tls": {
        "enabled": true,
        "server_name": "www.icloud.com",
        "insecure": true,
        "alpn": [
          "h3"
        ]
      }
    },
    {
      "tag": "🇸🇬 白羊座-D/SGH",
      "type": "hysteria2",
      "server": "by-sgh.alicdn.win",
      "server_port": 6867,
      "password": "4690b9f9-a3ad-4065-afb0-155aa19cd495",
      "up_mbps": 200,
      "down_mbps": 200,
      "tls": {
        "enabled": true,
        "server_name": "www.icloud.com",
        "insecure": true,
        "alpn": [
          "h3"
        ]
      }
    },
    {
      "tag": "🇸🇬 白羊座-D/SGH/Z",
      "type": "hysteria2",
      "server": "edu-sgh.alicdn.win",
      "server_port": 16667,
      "password": "4690b9f9-a3ad-4065-afb0-155aa19cd495",
      "up_mbps": 200,
      "down_mbps": 200,
      "tls": {
        "enabled": true,
        "server_name": "www.icloud.com",
        "insecure": true,
        "alpn": [
          "h3"
        ]
      }
    },
    {
      "tag": "🇸🇬 白羊座-D/SGI",
      "type": "hysteria2",
      "server": "by-sgi.alicdn.win",
      "server_port": 6868,
      "password": "4690b9f9-a3ad-4065-afb0-155aa19cd495",
      "up_mbps": 200,
      "down_mbps": 200,
      "tls": {
        "enabled": true,
        "server_name": "www.icloud.com",
        "insecure": true,
        "alpn": [
          "h3"
        ]
      }
    },
    {
      "tag": "🇸🇬 白羊座-D/SGI/Z",
      "type": "hysteria2",
      "server": "edu-sgi.alicdn.win",
      "server_port": 16668,
      "password": "4690b9f9-a3ad-4065-afb0-155aa19cd495",
      "up_mbps": 200,
      "down_mbps": 200,
      "tls": {
        "enabled": true,
        "server_name": "www.icloud.com",
        "insecure": true,
        "alpn": [
          "h3"
        ]
      }
    },
    {
      "tag": "🇸🇬 白羊座-D/SGJ",
      "type": "hysteria2",
      "server": "by-sgj.alicdn.win",
      "server_port": 6869,
      "password": "4690b9f9-a3ad-4065-afb0-155aa19cd495",
      "up_mbps": 200,
      "down_mbps": 200,
      "tls": {
        "enabled": true,
        "server_name": "www.icloud.com",
        "insecure": true,
        "alpn": [
          "h3"
        ]
      }
    },
    {
      "tag": "🇸🇬 白羊座-D/SGJ/Z",
      "type": "hysteria2",
      "server": "edu-sgj.alicdn.win",
      "server_port": 16669,
      "password": "4690b9f9-a3ad-4065-afb0-155aa19cd495",
      "up_mbps": 200,
      "down_mbps": 200,
      "tls": {
        "enabled": true,
        "server_name": "www.icloud.com",
        "insecure": true,
        "alpn": [
          "h3"
        ]
      }
    },
    {
      "tag": "🇯🇵 白羊座-C/JPA/V",
      "type": "hysteria2",
      "server": "by-jpa-v6.alicdn.win",
      "server_port": 56894,
      "password": "4690b9f9-a3ad-4065-afb0-155aa19cd495",
      "up_mbps": 200,
      "down_mbps": 200,
      "tls": {
        "enabled": true,
        "server_name": "www.bing.com",
        "insecure": true,
        "alpn": [
          "h3"
        ]
      }
    },
    {
      "tag": "🇯🇵 白羊座-A/JPB/V",
      "type": "hysteria2",
      "server": "by-jpb-v6.alicdn.win",
      "server_port": 56894,
      "password": "4690b9f9-a3ad-4065-afb0-155aa19cd495",
      "up_mbps": 200,
      "down_mbps": 200,
      "tls": {
        "enabled": true,
        "server_name": "www.bing.com",
        "insecure": true,
        "alpn": [
          "h3"
        ]
      }
    },
    {
      "tag": "🇯🇵 白羊座-C/JPC/V",
      "type": "hysteria2",
      "server": "by-jpc-v6.alicdn.win",
      "server_port": 56894,
      "password": "4690b9f9-a3ad-4065-afb0-155aa19cd495",
      "up_mbps": 200,
      "down_mbps": 200,
      "tls": {
        "enabled": true,
        "server_name": "www.bing.com",
        "insecure": true,
        "alpn": [
          "h3"
        ]
      }
    },
    {
      "tag": "🇯🇵 白羊座-C/JPD/V",
      "type": "hysteria2",
      "server": "by-jpd-v6.alicdn.win",
      "server_port": 56894,
      "password": "4690b9f9-a3ad-4065-afb0-155aa19cd495",
      "up_mbps": 200,
      "down_mbps": 200,
      "tls": {
        "enabled": true,
        "server_name": "www.bing.com",
        "insecure": true,
        "alpn": [
          "h3"
        ]
      }
    },
    {
      "tag": "🇯🇵 白羊座-C/JPA",
      "type": "hysteria2",
      "server": "by-jpa.alicdn.win",
      "server_port": 6890,
      "password": "4690b9f9-a3ad-4065-afb0-155aa19cd495",
      "up_mbps": 200,
      "down_mbps": 200,
      "tls": {
        "enabled": true,
        "server_name": "www.bing.com",
        "insecure": true,
        "alpn": [
          "h3"
        ]
      }
    },
    {
      "tag": "🇯🇵 白羊座-C/JPA/Z",
      "type": "hysteria2",
      "server": "edu-jpa.alicdn.win",
      "server_port": 36660,
      "password": "4690b9f9-a3ad-4065-afb0-155aa19cd495",
      "up_mbps": 200,
      "down_mbps": 200,
      "tls": {
        "enabled": true,
        "server_name": "www.bing.com",
        "insecure": true,
        "alpn": [
          "h3"
        ]
      }
    },
    {
      "tag": "🇯🇵 白羊座-C/JPB",
      "type": "hysteria2",
      "server": "by-jpb.alicdn.win",
      "server_port": 6891,
      "password": "4690b9f9-a3ad-4065-afb0-155aa19cd495",
      "up_mbps": 200,
      "down_mbps": 200,
      "tls": {
        "enabled": true,
        "server_name": "www.bing.com",
        "insecure": true,
        "alpn": [
          "h3"
        ]
      }
    },
    {
      "tag": "🇯🇵 白羊座-C/JPB/Z",
      "type": "hysteria2",
      "server": "edu-jpb.alicdn.win",
      "server_port": 36661,
      "password": "4690b9f9-a3ad-4065-afb0-155aa19cd495",
      "up_mbps": 200,
      "down_mbps": 200,
      "tls": {
        "enabled": true,
        "server_name": "www.bing.com",
        "insecure": true,
        "alpn": [
          "h3"
        ]
      }
    },
    {
      "tag": "🇯🇵 白羊座-C/JPC",
      "type": "hysteria2",
      "server": "by-jpc.alicdn.win",
      "server_port": 6192,
      "password": "4690b9f9-a3ad-4065-afb0-155aa19cd495",
      "up_mbps": 200,
      "down_mbps": 200,
      "tls": {
        "enabled": true,
        "server_name": "www.bing.com",
        "insecure": true,
        "alpn": [
          "h3"
        ]
      }
    },
    {
      "tag": "🇯🇵 白羊座-C/JPC/Z",
      "type": "hysteria2",
      "server": "edu-jpc.alicdn.win",
      "server_port": 36662,
      "password": "4690b9f9-a3ad-4065-afb0-155aa19cd495",
      "up_mbps": 200,
      "down_mbps": 200,
      "tls": {
        "enabled": true,
        "server_name": "www.bing.com",
        "insecure": true,
        "alpn": [
          "h3"
        ]
      }
    },
    {
      "tag": "🇯🇵 白羊座-C/JPD",
      "type": "hysteria2",
      "server": "by-jpd.alicdn.win",
      "server_port": 6893,
      "password": "4690b9f9-a3ad-4065-afb0-155aa19cd495",
      "up_mbps": 200,
      "down_mbps": 200,
      "tls": {
        "enabled": true,
        "server_name": "www.bing.com",
        "insecure": true,
        "alpn": [
          "h3"
        ]
      }
    },
    {
      "tag": "🇯🇵 白羊座-C/JPD/Z",
      "type": "hysteria2",
      "server": "edu-jpd.alicdn.win",
      "server_port": 36663,
      "password": "4690b9f9-a3ad-4065-afb0-155aa19cd495",
      "up_mbps": 200,
      "down_mbps": 200,
      "tls": {
        "enabled": true,
        "server_name": "www.bing.com",
        "insecure": true,
        "alpn": [
          "h3"
        ]
      }
    },
    {
      "tag": "🇯🇵 白羊座-C/JPE",
      "type": "hysteria2",
      "server": "by-jpe.alicdn.win",
      "server_port": 6894,
      "password": "4690b9f9-a3ad-4065-afb0-155aa19cd495",
      "up_mbps": 200,
      "down_mbps": 200,
      "tls": {
        "enabled": true,
        "server_name": "www.bing.com",
        "insecure": true,
        "alpn": [
          "h3"
        ]
      }
    },
    {
      "tag": "🇯🇵 白羊座-C/JPE/Z",
      "type": "hysteria2",
      "server": "edu-jpe.alicdn.win",
      "server_port": 36664,
      "password": "4690b9f9-a3ad-4065-afb0-155aa19cd495",
      "up_mbps": 200,
      "down_mbps": 200,
      "tls": {
        "enabled": true,
        "server_name": "www.bing.com",
        "insecure": true,
        "alpn": [
          "h3"
        ]
      }
    },
    {
      "tag": "🇯🇵 白羊座-C/JPF",
      "type": "hysteria2",
      "server": "by-jpf.alicdn.win",
      "server_port": 6895,
      "password": "4690b9f9-a3ad-4065-afb0-155aa19cd495",
      "up_mbps": 200,
      "down_mbps": 200,
      "tls": {
        "enabled": true,
        "server_name": "www.bing.com",
        "insecure": true,
        "alpn": [
          "h3"
        ]
      }
    },
    {
      "tag": "🇯🇵 白羊座-C/JPF/Z",
      "type": "hysteria2",
      "server": "edu-jpf.alicdn.win",
      "server_port": 36665,
      "password": "4690b9f9-a3ad-4065-afb0-155aa19cd495",
      "up_mbps": 200,
      "down_mbps": 200,
      "tls": {
        "enabled": true,
        "server_name": "www.bing.com",
        "insecure": true,
        "alpn": [
          "h3"
        ]
      }
    },
    {
      "tag": "🇯🇵 白羊座-C/JPG",
      "type": "hysteria2",
      "server": "by-jpg.alicdn.win",
      "server_port": 6896,
      "password": "4690b9f9-a3ad-4065-afb0-155aa19cd495",
      "up_mbps": 200,
      "down_mbps": 200,
      "tls": {
        "enabled": true,
        "server_name": "www.bing.com",
        "insecure": true,
        "alpn": [
          "h3"
        ]
      }
    },
    {
      "tag": "🇯🇵 白羊座-C/JPG/Z",
      "type": "hysteria2",
      "server": "edu-jpg.alicdn.win",
      "server_port": 36666,
      "password": "4690b9f9-a3ad-4065-afb0-155aa19cd495",
      "up_mbps": 200,
      "down_mbps": 200,
      "tls": {
        "enabled": true,
        "server_name": "www.bing.com",
        "insecure": true,
        "alpn": [
          "h3"
        ]
      }
    },
    {
      "tag": "🇯🇵 白羊座-C/JPH",
      "type": "hysteria2",
      "server": "by-jph.alicdn.win",
      "server_port": 6897,
      "password": "4690b9f9-a3ad-4065-afb0-155aa19cd495",
      "up_mbps": 200,
      "down_mbps": 200,
      "tls": {
        "enabled": true,
        "server_name": "www.bing.com",
        "insecure": true,
        "alpn": [
          "h3"
        ]
      }
    },
    {
      "tag": "🇯🇵 白羊座-C/JPH/Z",
      "type": "hysteria2",
      "server": "edu-jph.alicdn.win",
      "server_port": 36667,
      "password": "4690b9f9-a3ad-4065-afb0-155aa19cd495",
      "up_mbps": 200,
      "down_mbps": 200,
      "tls": {
        "enabled": true,
        "server_name": "www.bing.com",
        "insecure": true,
        "alpn": [
          "h3"
        ]
      }
    },
    {
      "tag": "🇯🇵 白羊座-C/JPI",
      "type": "hysteria2",
      "server": "by-jpi.alicdn.win",
      "server_port": 6898,
      "password": "4690b9f9-a3ad-4065-afb0-155aa19cd495",
      "up_mbps": 200,
      "down_mbps": 200,
      "tls": {
        "enabled": true,
        "server_name": "www.bing.com",
        "insecure": true,
        "alpn": [
          "h3"
        ]
      }
    },
    {
      "tag": "🇯🇵 白羊座-C/JPI/Z",
      "type": "hysteria2",
      "server": "edu-jpi.alicdn.win",
      "server_port": 36668,
      "password": "4690b9f9-a3ad-4065-afb0-155aa19cd495",
      "up_mbps": 200,
      "down_mbps": 200,
      "tls": {
        "enabled": true,
        "server_name": "www.bing.com",
        "insecure": true,
        "alpn": [
          "h3"
        ]
      }
    },
    {
      "tag": "🇯🇵 白羊座-C/JPJ",
      "type": "hysteria2",
      "server": "by-jpj.alicdn.win",
      "server_port": 6899,
      "password": "4690b9f9-a3ad-4065-afb0-155aa19cd495",
      "up_mbps": 200,
      "down_mbps": 200,
      "tls": {
        "enabled": true,
        "server_name": "www.bing.com",
        "insecure": true,
        "alpn": [
          "h3"
        ]
      }
    },
    {
      "tag": "🇯🇵 白羊座-C/JPJ/Z",
      "type": "hysteria2",
      "server": "edu-jpj.alicdn.win",
      "server_port": 36669,
      "password": "4690b9f9-a3ad-4065-afb0-155aa19cd495",
      "up_mbps": 200,
      "down_mbps": 200,
      "tls": {
        "enabled": true,
        "server_name": "www.bing.com",
        "insecure": true,
        "alpn": [
          "h3"
        ]
      }
    },
    {
      "tag": "🇦🇷 白羊座-C/阿根廷A",
      "type": "hysteria2",
      "server": "by-agta.alicdn.win",
      "server_port": 62250,
      "password": "4690b9f9-a3ad-4065-afb0-155aa19cd495",
      "up_mbps": 100,
      "down_mbps": 100,
      "tls": {
        "enabled": true,
        "server_name": "www.afa.com.ar",
        "insecure": true,
        "alpn": [
          "h3"
        ]
      }
    },
    {
      "tag": "🇦🇷 白羊座-C/阿根廷B",
      "type": "hysteria2",
      "server": "by-agtb.alicdn.win",
      "server_port": 62250,
      "password": "4690b9f9-a3ad-4065-afb0-155aa19cd495",
      "up_mbps": 100,
      "down_mbps": 100,
      "tls": {
        "enabled": true,
        "server_name": "www.afa.com.ar",
        "insecure": true,
        "alpn": [
          "h3"
        ]
      }
    },
    {
      "tag": "🇦🇷 白羊座-C/阿根廷/备用",
      "type": "hysteria2",
      "server": "by-agt-v6.alicdn.win",
      "server_port": 62250,
      "password": "4690b9f9-a3ad-4065-afb0-155aa19cd495",
      "up_mbps": 100,
      "down_mbps": 100,
      "tls": {
        "enabled": true,
        "server_name": "www.afa.com.ar",
        "insecure": true,
        "alpn": [
          "h3"
        ]
      }
    }
  ],
  "route": {
    "auto_detect_interface": true,
    "final": "proxy",
    "rules": [
      {
        "protocol": "dns",
        "outbound": "dns-out"
      },
      {
        "port": 53,
        "outbound": "dns-out"
      },
      {
        "network": "udp",
        "port": 443,
        "outbound": "block"
      },
      {
        "rule_set": "geosite-category-ads-all",
        "outbound": "AdBlock"
      },
      {
        "clash_mode": "direct",
        "outbound": "direct"
      },
      {
        "clash_mode": "global",
        "outbound": "proxy"
      },
      {
        "domain": [
          "clash.razord.top",
          "yacd.metacubex.one",
          "yacd.haishan.me",
          "d.metacubex.one"
        ],
        "outbound": "direct"
      },
      {
        "rule_set": "geosite-openai",
        "outbound": "OpenAI"
      },
      {
        "rule_set": "geosite-youtube",
        "outbound": "Google"
      },
      {
        "rule_set": "geoip-google",
        "outbound": "Google"
      },
      {
        "rule_set": "geosite-google",
        "outbound": "Google"
      },
      {
        "rule_set": "geosite-github",
        "outbound": "Google"
      },
      {
        "rule_set": "geoip-telegram",
        "outbound": "Telegram"
      },
      {
        "rule_set": "geosite-telegram",
        "outbound": "Telegram"
      },
      {
        "rule_set": "geoip-twitter",
        "outbound": "Twitter"
      },
      {
        "rule_set": "geosite-twitter",
        "outbound": "Twitter"
      },
      {
        "rule_set": "geoip-facebook",
        "outbound": "Facebook"
      },
      {
        "rule_set": [
          "geosite-facebook",
          "geosite-instagram"
        ],
        "outbound": "Facebook"
      },
      {
        "rule_set": "geoip-bilibili",
        "outbound": "BiliBili"
      },
      {
        "rule_set": "geosite-bilibili",
        "outbound": "BiliBili"
      },
      {
        "rule_set": "geosite-bahamut",
        "outbound": "Bahamut"
      },
      {
        "rule_set": "geosite-spotify",
        "outbound": "Spotify"
      },
      {
        "rule_set": "geosite-tiktok",
        "outbound": "TikTok"
      },
      {
        "rule_set": "geoip-netflix",
        "outbound": "NETFLIX"
      },
      {
        "rule_set": "geosite-netflix",
        "outbound": "NETFLIX"
      },
      {
        "rule_set": "geosite-disney",
        "outbound": "Disney+"
      },
      {
        "rule_set": "geosite-apple",
        "outbound": "Apple"
      },
      {
        "rule_set": "geosite-amazon",
        "outbound": "Apple"
      },
      {
        "rule_set": "geosite-microsoft",
        "outbound": "Microsoft"
      },
      {
        "rule_set": "geosite-category-games",
        "outbound": "Games"
      },
      {
        "rule_set": "geosite-hbo",
        "outbound": "Streaming"
      },
      {
        "rule_set": "geosite-primevideo",
        "outbound": "Streaming"
      },
      {
        "rule_set": "geosite-geolocation-!cn",
        "outbound": "Global"
      },
      {
        "rule_set": "geosite-private",
        "outbound": "direct"
      },
      {
        "ip_is_private": true,
        "outbound": "direct"
      },
      {
        "rule_set": "geoip-cn",
        "outbound": "China"
      },
      {
        "rule_set": "geosite-cn",
        "outbound": "China"
      }
    ],
    "rule_set": [
      {
        "tag": "geoip-google",
        "type": "remote",
        "format": "binary",
        "url": "https://testingcf.jsdelivr.net/gh/MetaCubeX/meta-rules-dat@sing/geo/geoip/google.srs",
        "download_detour": "direct"
      },
      {
        "tag": "geoip-telegram",
        "type": "remote",
        "format": "binary",
        "url": "https://testingcf.jsdelivr.net/gh/MetaCubeX/meta-rules-dat@sing/geo/geoip/telegram.srs",
        "download_detour": "direct"
      },
      {
        "tag": "geoip-twitter",
        "type": "remote",
        "format": "binary",
        "url": "https://testingcf.jsdelivr.net/gh/MetaCubeX/meta-rules-dat@sing/geo/geoip/twitter.srs",
        "download_detour": "direct"
      },
      {
        "tag": "geoip-facebook",
        "type": "remote",
        "format": "binary",
        "url": "https://testingcf.jsdelivr.net/gh/MetaCubeX/meta-rules-dat@sing/geo/geoip/facebook.srs",
        "download_detour": "direct"
      },
      {
        "tag": "geoip-netflix",
        "type": "remote",
        "format": "binary",
        "url": "https://testingcf.jsdelivr.net/gh/MetaCubeX/meta-rules-dat@sing/geo/geoip/netflix.srs",
        "download_detour": "direct"
      },
      {
        "tag": "geoip-apple",
        "type": "remote",
        "format": "binary",
        "url": "https://testingcf.jsdelivr.net/gh/MetaCubeX/meta-rules-dat@sing/geo-lite/geoip/apple.srs",
        "download_detour": "direct"
      },
      {
        "tag": "geoip-bilibili",
        "type": "remote",
        "format": "binary",
        "url": "https://testingcf.jsdelivr.net/gh/MetaCubeX/meta-rules-dat@sing/geo-lite/geoip/bilibili.srs",
        "download_detour": "direct"
      },
      {
        "tag": "geoip-cn",
        "type": "remote",
        "format": "binary",
        "url": "https://testingcf.jsdelivr.net/gh/MetaCubeX/meta-rules-dat@sing/geo/geoip/cn.srs",
        "download_detour": "direct"
      },
      {
        "tag": "geosite-private",
        "type": "remote",
        "format": "binary",
        "url": "https://testingcf.jsdelivr.net/gh/MetaCubeX/meta-rules-dat@sing/geo/geosite/private.srs",
        "download_detour": "direct"
      },
      {
        "tag": "geosite-openai",
        "type": "remote",
        "format": "binary",
        "url": "https://testingcf.jsdelivr.net/gh/MetaCubeX/meta-rules-dat@sing/geo/geosite/openai.srs",
        "download_detour": "direct"
      },
      {
        "tag": "geosite-youtube",
        "type": "remote",
        "format": "binary",
        "url": "https://testingcf.jsdelivr.net/gh/MetaCubeX/meta-rules-dat@sing/geo/geosite/youtube.srs",
        "download_detour": "direct"
      },
      {
        "tag": "geosite-google",
        "type": "remote",
        "format": "binary",
        "url": "https://testingcf.jsdelivr.net/gh/MetaCubeX/meta-rules-dat@sing/geo/geosite/google.srs",
        "download_detour": "direct"
      },
      {
        "tag": "geosite-github",
        "type": "remote",
        "format": "binary",
        "url": "https://testingcf.jsdelivr.net/gh/MetaCubeX/meta-rules-dat@sing/geo/geosite/github.srs",
        "download_detour": "direct"
      },
      {
        "tag": "geosite-telegram",
        "type": "remote",
        "format": "binary",
        "url": "https://testingcf.jsdelivr.net/gh/MetaCubeX/meta-rules-dat@sing/geo/geosite/telegram.srs",
        "download_detour": "direct"
      },
      {
        "tag": "geosite-twitter",
        "type": "remote",
        "format": "binary",
        "url": "https://testingcf.jsdelivr.net/gh/MetaCubeX/meta-rules-dat@sing/geo/geosite/twitter.srs",
        "download_detour": "direct"
      },
      {
        "tag": "geosite-facebook",
        "type": "remote",
        "format": "binary",
        "url": "https://testingcf.jsdelivr.net/gh/MetaCubeX/meta-rules-dat@sing/geo/geosite/facebook.srs",
        "download_detour": "direct"
      },
      {
        "tag": "geosite-instagram",
        "type": "remote",
        "format": "binary",
        "url": "https://testingcf.jsdelivr.net/gh/MetaCubeX/meta-rules-dat@sing/geo/geosite/instagram.srs",
        "download_detour": "direct"
      },
      {
        "tag": "geosite-bilibili",
        "type": "remote",
        "format": "binary",
        "url": "https://testingcf.jsdelivr.net/gh/MetaCubeX/meta-rules-dat@sing/geo/geosite/bilibili.srs",
        "download_detour": "direct"
      },
      {
        "tag": "geosite-bahamut",
        "type": "remote",
        "format": "binary",
        "url": "https://testingcf.jsdelivr.net/gh/MetaCubeX/meta-rules-dat@sing/geo/geosite/bahamut.srs",
        "download_detour": "direct"
      },
      {
        "tag": "geosite-spotify",
        "type": "remote",
        "format": "binary",
        "url": "https://testingcf.jsdelivr.net/gh/MetaCubeX/meta-rules-dat@sing/geo/geosite/spotify.srs",
        "download_detour": "direct"
      },
      {
        "tag": "geosite-tiktok",
        "type": "remote",
        "format": "binary",
        "url": "https://testingcf.jsdelivr.net/gh/MetaCubeX/meta-rules-dat@sing/geo/geosite/tiktok.srs",
        "download_detour": "direct"
      },
      {
        "tag": "geosite-netflix",
        "type": "remote",
        "format": "binary",
        "url": "https://testingcf.jsdelivr.net/gh/MetaCubeX/meta-rules-dat@sing/geo/geosite/netflix.srs",
        "download_detour": "direct"
      },
      {
        "tag": "geosite-disney",
        "type": "remote",
        "format": "binary",
        "url": "https://testingcf.jsdelivr.net/gh/MetaCubeX/meta-rules-dat@sing/geo/geosite/disney.srs",
        "download_detour": "direct"
      },
      {
        "tag": "geosite-apple",
        "type": "remote",
        "format": "binary",
        "url": "https://testingcf.jsdelivr.net/gh/MetaCubeX/meta-rules-dat@sing/geo/geosite/apple.srs",
        "download_detour": "direct"
      },
      {
        "tag": "geosite-amazon",
        "type": "remote",
        "format": "binary",
        "url": "https://testingcf.jsdelivr.net/gh/MetaCubeX/meta-rules-dat@sing/geo/geosite/amazon.srs",
        "download_detour": "direct"
      },
      {
        "tag": "geosite-microsoft",
        "type": "remote",
        "format": "binary",
        "url": "https://testingcf.jsdelivr.net/gh/MetaCubeX/meta-rules-dat@sing/geo/geosite/microsoft.srs",
        "download_detour": "direct"
      },
      {
        "tag": "geosite-category-games",
        "type": "remote",
        "format": "binary",
        "url": "https://testingcf.jsdelivr.net/gh/MetaCubeX/meta-rules-dat@sing/geo/geosite/category-games.srs",
        "download_detour": "direct"
      },
      {
        "tag": "geosite-hbo",
        "type": "remote",
        "format": "binary",
        "url": "https://testingcf.jsdelivr.net/gh/MetaCubeX/meta-rules-dat@sing/geo/geosite/hbo.srs",
        "download_detour": "direct"
      },
      {
        "tag": "geosite-primevideo",
        "type": "remote",
        "format": "binary",
        "url": "https://testingcf.jsdelivr.net/gh/MetaCubeX/meta-rules-dat@sing/geo/geosite/primevideo.srs",
        "download_detour": "direct"
      },
      {
        "tag": "geosite-cn",
        "type": "remote",
        "format": "binary",
        "url": "https://testingcf.jsdelivr.net/gh/MetaCubeX/meta-rules-dat@sing/geo/geosite/cn.srs",
        "download_detour": "direct"
      },
      {
        "tag": "geosite-geolocation-!cn",
        "type": "remote",
        "format": "binary",
        "url": "https://testingcf.jsdelivr.net/gh/MetaCubeX/meta-rules-dat@sing/geo/geosite/geolocation-!cn.srs",
        "download_detour": "direct"
      },
      {
        "tag": "geosite-category-ads-all",
        "type": "remote",
        "format": "binary",
        "url": "https://testingcf.jsdelivr.net/gh/MetaCubeX/meta-rules-dat@sing/geo/geosite/category-ads-all.srs",
        "download_detour": "direct"
      }
    ]
  }
}