{
    "作者": "菜妮丝https://cainisi.cf",
    "站名": "胖虎影视",
    "主页url": "http://www.panghuys.com",

    "分类": "电影$1#剧集$2#综艺$3#动漫$4",
    "分类值": "1&2&3&4",

    "分类url": "http://www.panghuys.com/vodshow/{cateId}{area}{by}{class}/page/{catePg}{year}.html",

    "副标题": "module-item-note\">&&</div>",

    "搜索模式": "0",
    "搜索后缀": "/v/",

    "导演": "导演：&&</div>",
    "主演": "主演：&&</div>",
    "简介": "<p>&&</p>",

    "线路数组": "data-dropdown-value=&&</div>",
    "线路标题": "<span>&&</small>[替换:</span><small>>>👉]+集♥",

    "播放数组": "module-play-list\">&&</div>",

    "筛选": {
        "1": [{
                "key": "class",
                "name": "剧情",
                "value": [{
                        "n": "全部",
                        "v": ""
                    },
                    {
                        "n": "动作",
                        "v": "/class/动作"
                    },
                    {
                        "n": "喜剧",
                        "v": "/class/喜剧"
                    },
                    {
                        "n": "爱情",
                        "v": "/class/爱情"
                    },
                    {
                        "n": "科幻",
                        "v": "/class/科幻"
                    },
                    {
                        "n": "剧情",
                        "v": "/class/剧情"
                    },
                    {
                        "n": "悬疑",
                        "v": "/class/悬疑"
                    },
                    {
                        "n": "惊悚",
                        "v": "/class/惊悚"
                    },
                    {
                        "n": "恐怖",
                        "v": "/class/恐怖"
                    },
                    {
                        "n": "犯罪",
                        "v": "/class/犯罪"
                    },
                    {
                        "n": "谍战",
                        "v": "/class/谍战"
                    },
                    {
                        "n": "冒险",
                        "v": "/class/冒险"
                    },
                    {
                        "n": "奇幻",
                        "v": "/class/奇幻"
                    },
                    {
                        "n": "灾难",
                        "v": "/class/灾难"
                    },
                    {
                        "n": "战争",
                        "v": "/class/战争"
                    },
                    {
                        "n": "动画",
                        "v": "/class/动画"
                    },
                    {
                        "n": "歌舞",
                        "v": "/class/歌舞"
                    },
                    {
                        "n": "历史",
                        "v": "/class/历史"
                    },
                    {
                        "n": "传记",
                        "v": "/class/传记"
                    },
                    {
                        "n": "其他",
                        "v": "/class/其他"
                    }
                ]
            },

            {
                "key": "area",
                "name": "地区",
                "value": [{
                        "n": "全部",
                        "v": ""
                    },
                    {
                        "n": "中国大陆",
                        "v": "/area/中国大陆"
                    },
                    {
                        "n": "中国香港",
                        "v": "/area/中国香港"
                    },
                    {
                        "n": "中国台湾",
                        "v": "/area/中国台湾"
                    },
                    {
                        "n": "美国",
                        "v": "/area/美国"
                    },
                    {
                        "n": "法国",
                        "v": "/area/法国"
                    },
                    {
                        "n": "英国",
                        "v": "/area/英国"
                    },
                    {
                        "n": "日本",
                        "v": "/area/日本"
                    },
                    {
                        "n": "韩国",
                        "v": "/area/韩国"
                    },
                    {
                        "n": "德国",
                        "v": "/area/德国"
                    },
                    {
                        "n": "泰国",
                        "v": "/area/泰国"
                    },
                    {
                        "n": "印度",
                        "v": "/area/印度"
                    },
                    {
                        "n": "意大利",
                        "v": "/area/意大利"
                    },
                    {
                        "n": "西班牙",
                        "v": "/area/西班牙"
                    },
                    {
                        "n": "加拿大",
                        "v": "/area/加拿大"
                    },
                    {
                        "n": "其他",
                        "v": "/area/其他"
                    }
                ]
            },

            {
                "key": "year",
                "name": "年份",
                "value": [{
                        "n": "全部",
                        "v": ""
                    },
                    {
                        "n": "2022",
                        "v": "/year/2022"
                    },
                    {
                        "n": "2021",
                        "v": "/year/2021"
                    },
                    {
                        "n": "2020",
                        "v": "/year/2020"
                    },
                    {
                        "n": "2019",
                        "v": "/year/2019"
                    },
                    {
                        "n": "2018",
                        "v": "/year/2018"
                    },
                    {
                        "n": "2017",
                        "v": "/year/2017"
                    },
                    {
                        "n": "2016",
                        "v": "/year/2016"
                    },
                    {
                        "n": "2015",
                        "v": "/year/2015"
                    },
                    {
                        "n": "2014",
                        "v": "/year/2014"
                    },
                    {
                        "n": "2013",
                        "v": "/year/2013"
                    },
                    {
                        "n": "2012",
                        "v": "/year/2012"
                    },
                    {
                        "n": "2011",
                        "v": "/year/2011"
                    },
                    {
                        "n": "2010",
                        "v": "/year/2010"
                    },
                    {
                        "n": "2009",
                        "v": "/year/2009"
                    },
                    {
                        "n": "2008",
                        "v": "/year/2008"
                    },
                    {
                        "n": "2007",
                        "v": "/year/2007"
                    },
                    {
                        "n": "2006",
                        "v": "/year/2006"
                    },
                    {
                        "n": "2005",
                        "v": "/year/2005"
                    },
                    {
                        "n": "2004",
                        "v": "/year/2004"
                    },
                    {
                        "n": "2003",
                        "v": "/year/2003"
                    },
                    {
                        "n": "2002",
                        "v": "/year/2002"
                    },
                    {
                        "n": "2001",
                        "v": "/year/2001"
                    },
                    {
                        "n": "2000",
                        "v": "/year/2000"
                    }
                ]
            },

            {
                "key": "by",
                "name": "排序",
                "value": [{
                        "n": "时间",
                        "v": "/by/time"
                    },
                    {
                        "n": "人气",
                        "v": "/by/hits"
                    },
                    {
                        "n": "评分",
                        "v": "/by/score"
                    }
                ]
            }
        ],

        "2": [{
                "key": "class",
                "name": "剧情",
                "value": [{
                        "n": "全部",
                        "v": ""
                    },
                    {
                        "n": "武侠",
                        "v": "/class/武侠"
                    },
                    {
                        "n": "喜剧",
                        "v": "/class/喜剧"
                    },
                    {
                        "n": "爱情",
                        "v": "/class/爱情"
                    },
                    {
                        "n": "剧情",
                        "v": "/class/剧情"
                    },
                    {
                        "n": "青春",
                        "v": "/class/青春"
                    },
                    {
                        "n": "悬疑",
                        "v": "/class/悬疑"
                    },
                    {
                        "n": "科幻",
                        "v": "/class/科幻"
                    },
                    {
                        "n": "军事",
                        "v": "/class/军事"
                    },
                    {
                        "n": "警匪",
                        "v": "/class/警匪"
                    },
                    {
                        "n": "谍战",
                        "v": "/class/谍战"
                    },
                    {
                        "n": "奇幻",
                        "v": "/class/奇幻"
                    },
                    {
                        "n": "偶像",
                        "v": "/class/偶像"
                    },
                    {
                        "n": "年代",
                        "v": "/class/年代"
                    },
                    {
                        "n": "乡村",
                        "v": "/class/乡村"
                    },
                    {
                        "n": "都市",
                        "v": "/class/都市"
                    },
                    {
                        "n": "家庭",
                        "v": "/class/家庭"
                    },
                    {
                        "n": "古装",
                        "v": "/class/古装"
                    },
                    {
                        "n": "历史",
                        "v": "/class/历史"
                    },
                    {
                        "n": "神话",
                        "v": "/class/神话"
                    },
                    {
                        "n": "其他",
                        "v": "/class/其他"
                    }
                ]
            },

            {
                "key": "area",
                "name": "地区",
                "value": [{
                        "n": "全部",
                        "v": ""
                    },
                    {
                        "n": "中国大陆",
                        "v": "/area/中国大陆"
                    },
                    {
                        "n": "中国香港",
                        "v": "/area/中国香港"
                    },
                    {
                        "n": "中国台湾",
                        "v": "/area/中国台湾"
                    },
                    {
                        "n": "美国",
                        "v": "/area/美国"
                    },
                    {
                        "n": "韩国",
                        "v": "/area/韩国"
                    },
                    {
                        "n": "日本",
                        "v": "/area/日本"
                    },
                    {
                        "n": "法国",
                        "v": "/area/法国"
                    },
                    {
                        "n": "英国",
                        "v": "/area/英国"
                    },
                    {
                        "n": "德国",
                        "v": "/area/德国"
                    },
                    {
                        "n": "泰国",
                        "v": "/area/泰国"
                    },
                    {
                        "n": "印度",
                        "v": "/area/印度"
                    },
                    {
                        "n": "其他",
                        "v": "/area/其他"
                    }
                ]
            },

            {
                "key": "year",
                "name": "年份",
                "value": [{
                        "n": "全部",
                        "v": ""
                    },
                    {
                        "n": "2022",
                        "v": "/year/2022"
                    },
                    {
                        "n": "2021",
                        "v": "/year/2021"
                    },
                    {
                        "n": "2020",
                        "v": "/year/2020"
                    },
                    {
                        "n": "2019",
                        "v": "/year/2019"
                    },
                    {
                        "n": "2018",
                        "v": "/year/2018"
                    },
                    {
                        "n": "2017",
                        "v": "/year/2017"
                    },
                    {
                        "n": "2016",
                        "v": "/year/2016"
                    },
                    {
                        "n": "2015",
                        "v": "/year/2015"
                    },
                    {
                        "n": "2014",
                        "v": "/year/2014"
                    },
                    {
                        "n": "2013",
                        "v": "/year/2013"
                    },
                    {
                        "n": "2012",
                        "v": "/year/2012"
                    },
                    {
                        "n": "2011",
                        "v": "/year/2011"
                    },
                    {
                        "n": "2010",
                        "v": "/year/2010"
                    },
                    {
                        "n": "2009",
                        "v": "/year/2009"
                    },
                    {
                        "n": "2008",
                        "v": "/year/2008"
                    },
                    {
                        "n": "2007",
                        "v": "/year/2007"
                    },
                    {
                        "n": "2006",
                        "v": "/year/2006"
                    },
                    {
                        "n": "2005",
                        "v": "/year/2005"
                    },
                    {
                        "n": "2004",
                        "v": "/year/2004"
                    },
                    {
                        "n": "2003",
                        "v": "/year/2003"
                    },
                    {
                        "n": "2002",
                        "v": "/year/2002"
                    },
                    {
                        "n": "2001",
                        "v": "/year/2001"
                    },
                    {
                        "n": "2000",
                        "v": "/year/2000"
                    }
                ]
            },

            {
                "key": "by",
                "name": "排序",
                "value": [{
                        "n": "时间",
                        "v": "/by/time"
                    },
                    {
                        "n": "人气",
                        "v": "/by/hits"
                    },
                    {
                        "n": "评分",
                        "v": "/by/score"
                    }
                ]
            }
        ],

        "3": [{
                "key": "class",
                "name": "剧情",
                "value": [{
                        "n": "全部",
                        "v": ""
                    },
                    {
                        "n": "脱口秀",
                        "v": "/class/脱口秀"
                    },
                    {
                        "n": "真人秀",
                        "v": "/class/真人秀"
                    },
                    {
                        "n": "搞笑",
                        "v": "/class/搞笑"
                    },
                    {
                        "n": "访谈",
                        "v": "/class/访谈"
                    },
                    {
                        "n": "生活",
                        "v": "/class/生活"
                    },
                    {
                        "n": "晚会",
                        "v": "/class/晚会"
                    },
                    {
                        "n": "美食",
                        "v": "/class/美食"
                    },
                    {
                        "n": "游戏",
                        "v": "/class/游戏"
                    },
                    {
                        "n": "亲子",
                        "v": "/class/亲子"
                    },
                    {
                        "n": "旅游",
                        "v": "/class/旅游"
                    },
                    {
                        "n": "文化",
                        "v": "/class/文化"
                    },
                    {
                        "n": "体育",
                        "v": "/class/体育"
                    },
                    {
                        "n": "时尚",
                        "v": "/class/时尚"
                    },
                    {
                        "n": "纪实",
                        "v": "/class/纪实"
                    },
                    {
                        "n": "益智",
                        "v": "/class/益智"
                    },
                    {
                        "n": "演艺",
                        "v": "/class/演艺"
                    },
                    {
                        "n": "歌舞",
                        "v": "/class/歌舞"
                    },
                    {
                        "n": "音乐",
                        "v": "/class/音乐"
                    },
                    {
                        "n": "播报",
                        "v": "/class/播报"
                    },
                    {
                        "n": "其他",
                        "v": "/class/其他"
                    }
                ]
            },

            {
                "key": "area",
                "name": "地区",
                "value": [{
                        "n": "全部",
                        "v": ""
                    },
                    {
                        "n": "中国大陆",
                        "v": "/area/中国大陆"
                    },
                    {
                        "n": "中国香港",
                        "v": "/area/中国香港"
                    },
                    {
                        "n": "中国台湾",
                        "v": "/area/中国台湾"
                    },
                    {
                        "n": "美国",
                        "v": "/area/美国"
                    },
                    {
                        "n": "韩国",
                        "v": "/area/韩国"
                    },
                    {
                        "n": "日本",
                        "v": "/area/日本"
                    },
                    {
                        "n": "法国",
                        "v": "/area/法国"
                    },
                    {
                        "n": "英国",
                        "v": "/area/英国"
                    },
                    {
                        "n": "德国",
                        "v": "/area/德国"
                    },
                    {
                        "n": "泰国",
                        "v": "/area/泰国"
                    },
                    {
                        "n": "印度",
                        "v": "/area/印度"
                    },
                    {
                        "n": "其他",
                        "v": "/area/其他"
                    }
                ]
            },

            {
                "key": "year",
                "name": "年份",
                "value": [{
                        "n": "全部",
                        "v": ""
                    },
                    {
                        "n": "2022",
                        "v": "/year/2022"
                    },
                    {
                        "n": "2021",
                        "v": "/year/2021"
                    },
                    {
                        "n": "2020",
                        "v": "/year/2020"
                    },
                    {
                        "n": "2019",
                        "v": "/year/2019"
                    },
                    {
                        "n": "2018",
                        "v": "/year/2018"
                    },
                    {
                        "n": "2017",
                        "v": "/year/2017"
                    },
                    {
                        "n": "2016",
                        "v": "/year/2016"
                    },
                    {
                        "n": "2015",
                        "v": "/year/2015"
                    },
                    {
                        "n": "2014",
                        "v": "/year/2014"
                    },
                    {
                        "n": "2013",
                        "v": "/year/2013"
                    },
                    {
                        "n": "2012",
                        "v": "/year/2012"
                    },
                    {
                        "n": "2011",
                        "v": "/year/2011"
                    },
                    {
                        "n": "2010",
                        "v": "/year/2010"
                    },
                    {
                        "n": "2009",
                        "v": "/year/2009"
                    },
                    {
                        "n": "2008",
                        "v": "/year/2008"
                    },
                    {
                        "n": "2007",
                        "v": "/year/2007"
                    },
                    {
                        "n": "2006",
                        "v": "/year/2006"
                    },
                    {
                        "n": "2005",
                        "v": "/year/2005"
                    },
                    {
                        "n": "2004",
                        "v": "/year/2004"
                    },
                    {
                        "n": "2003",
                        "v": "/year/2003"
                    },
                    {
                        "n": "2002",
                        "v": "/year/2002"
                    },
                    {
                        "n": "2001",
                        "v": "/year/2001"
                    },
                    {
                        "n": "2000",
                        "v": "/year/2000"
                    }
                ]
            },

            {
                "key": "by",
                "name": "排序",
                "value": [{
                        "n": "时间",
                        "v": "/by/time"
                    },
                    {
                        "n": "人气",
                        "v": "/by/hits"
                    },
                    {
                        "n": "评分",
                        "v": "/by/score"
                    }
                ]
            }
        ],

        "4": [{
                "key": "class",
                "name": "剧情",
                "value": [{
                        "n": "全部",
                        "v": ""
                    },
                    {
                        "n": "热血",
                        "v": "/class/热血"
                    },
                    {
                        "n": "格斗",
                        "v": "/class/格斗"
                    },
                    {
                        "n": "恋爱",
                        "v": "/class/恋爱"
                    },
                    {
                        "n": "少女",
                        "v": "/class/少女"
                    },
                    {
                        "n": "校园",
                        "v": "/class/校园"
                    },
                    {
                        "n": "搞笑",
                        "v": "/class/搞笑"
                    },
                    {
                        "n": "神魔",
                        "v": "/class/神魔"
                    },
                    {
                        "n": "机战",
                        "v": "/class/机战"
                    },
                    {
                        "n": "科幻",
                        "v": "/class/科幻"
                    },
                    {
                        "n": "真人",
                        "v": "/class/真人"
                    },
                    {
                        "n": "青春",
                        "v": "/class/青春"
                    },
                    {
                        "n": "魔法",
                        "v": "/class/魔法"
                    },
                    {
                        "n": "神话",
                        "v": "/class/神话"
                    },
                    {
                        "n": "冒险",
                        "v": "/class/冒险"
                    },
                    {
                        "n": "运动",
                        "v": "/class/运动"
                    },
                    {
                        "n": "竞技",
                        "v": "/class/竞技"
                    },
                    {
                        "n": "童话",
                        "v": "/class/童话"
                    },
                    {
                        "n": "亲子",
                        "v": "/class/亲子"
                    },
                    {
                        "n": "教育",
                        "v": "/class/教育"
                    },
                    {
                        "n": "励志",
                        "v": "/class/励志"
                    },
                    {
                        "n": "剧情",
                        "v": "/class/剧情"
                    },
                    {
                        "n": "其他",
                        "v": "/class/其他"
                    }
                ]
            },

            {
                "key": "area",
                "name": "地区",
                "value": [{
                        "n": "全部",
                        "v": ""
                    },
                    {
                        "n": "中国大陆",
                        "v": "/area/中国大陆"
                    },
                    {
                        "n": "日本",
                        "v": "/area/日本"
                    },
                    {
                        "n": "美国",
                        "v": "/area/美国"
                    },
                    {
                        "n": "其他",
                        "v": "/area/其他"
                    }
                ]
            },

            {
                "key": "year",
                "name": "年份",
                "value": [{
                        "n": "全部",
                        "v": ""
                    },
                    {
                        "n": "2022",
                        "v": "/year/2022"
                    },
                    {
                        "n": "2021",
                        "v": "/year/2021"
                    },
                    {
                        "n": "2020",
                        "v": "/year/2020"
                    },
                    {
                        "n": "2019",
                        "v": "/year/2019"
                    },
                    {
                        "n": "2018",
                        "v": "/year/2018"
                    },
                    {
                        "n": "2017",
                        "v": "/year/2017"
                    },
                    {
                        "n": "2016",
                        "v": "/year/2016"
                    },
                    {
                        "n": "2015",
                        "v": "/year/2015"
                    },
                    {
                        "n": "2014",
                        "v": "/year/2014"
                    },
                    {
                        "n": "2013",
                        "v": "/year/2013"
                    },
                    {
                        "n": "2012",
                        "v": "/year/2012"
                    },
                    {
                        "n": "2011",
                        "v": "/year/2011"
                    },
                    {
                        "n": "2010",
                        "v": "/year/2010"
                    },
                    {
                        "n": "2009",
                        "v": "/year/2009"
                    },
                    {
                        "n": "2008",
                        "v": "/year/2008"
                    },
                    {
                        "n": "2007",
                        "v": "/year/2007"
                    },
                    {
                        "n": "2006",
                        "v": "/year/2006"
                    },
                    {
                        "n": "2005",
                        "v": "/year/2005"
                    },
                    {
                        "n": "2004",
                        "v": "/year/2004"
                    },
                    {
                        "n": "2003",
                        "v": "/year/2003"
                    },
                    {
                        "n": "2002",
                        "v": "/year/2002"
                    },
                    {
                        "n": "2001",
                        "v": "/year/2001"
                    },
                    {
                        "n": "2000",
                        "v": "/year/2000"
                    }
                ]
            },

            {
                "key": "by",
                "name": "排序",
                "value": [{
                        "n": "时间",
                        "v": "/by/time"
                    },
                    {
                        "n": "人气",
                        "v": "/by/hits"
                    },
                    {
                        "n": "评分",
                        "v": "/by/score"
                    }
                ]
            }
        ]
    }
}