{
    "作者": "菜妮丝https://cainisi.cf",
    "站名": "兔兔瓜",
    "主页url": "http://www.tutugua.com",

    "分类": "电影$1#连续剧$2#综艺$3#动漫$4",

    "分类url": "http://www.tutugua.com/type/{cateId}-{catePg}.html",

    "数组": "stui-vodlist__item\">&&</a>",
    "副标题": "pic-text\">&&</span>",

    "搜索模式": "1",
    "搜索url": "/index.php?m=vod-search;post;wd={wd}",
    "搜索数组": "stui-vodlist__item\">&&</a>",
    "搜索副标题": "pic-text\">&&</span>",

    "影片年代": "年份：&&</a>",
    "影片类型": "类型：&&</a>",
    "导演": "导演：&&</p>",
    "主演": "主演：&&</p>",
    "简介": "简介：&&</a>",

    "线路数组": "pull-right\">&&/h3>",
    "线路标题": "title\">&&<",

    "播放数组": "<ul class=\"stui-content&&</ul>"
}